# Order: depth_list, dim_list, N_list, design_list 
# depthlen : 1
# dimlen : 1
# Nlen : 6
# designlen : 7
8.000000000000000000e+01
9.000000000000000000e+00
1.000000000000000000e+00
1.000000000000000000e+01
9.600000000000000000e+01
9.160000000000000000e+02
8.730000000000000000e+03
8.319000000000000000e+04
1.000000000000000000e+00
2.000000000000000000e+00
3.000000000000000000e+00
4.000000000000000000e+00
5.000000000000000000e+00
6.000000000000000000e+00
7.000000000000000000e+00
3.938353366992700888e+00
7.755313621651372280e+00
1.527158275695752110e+01
3.007244468508566371e+01
5.921795688960443727e+01
1.166106199513011319e+02
2.296269138561565342e+02
1.092435472615913117e+00
1.763501295190963658e+00
3.041701074339235866e+00
5.339428020868972169e+00
9.476067188418614506e+00
1.697497374800866865e+01
3.066168011634004031e+01
8.514244239626300725e-01
1.311691086095581937e+00
3.168910124895159441e+00
1.054126994626684244e+01
4.119790903812492644e+01
1.723388446187276202e+02
7.420387912492952864e+02
1.007089954232420093e+00
2.028211251759269196e+00
6.131282462152006119e+00
2.394009926835581226e+01
1.093917770280411332e+02
5.497004023612300898e+02
2.928354733341178417e+03
9.925008465612858988e-01
2.020719100479845043e+00
6.386438028116694809e+00
2.770825814420918931e+01
1.521881553058691452e+02
9.956587307694289848e+02
7.400573825127344207e+03
1.001915331444684254e+00
2.009817401553112504e+00
6.042395092438052728e+00
2.412108536902615441e+01
1.188960168608095245e+02
6.867663169649254087e+02
4.468768699395826843e+03
