# Order: depth_list, dim_list, N_list, design_list 
# depthlen : 15
# dimlen : 1
# Nlen : 1
# designlen : 6
2.000000000000000000e+00
4.000000000000000000e+00
6.000000000000000000e+00
8.000000000000000000e+00
1.000000000000000000e+01
1.200000000000000000e+01
1.400000000000000000e+01
1.600000000000000000e+01
1.800000000000000000e+01
2.000000000000000000e+01
3.000000000000000000e+01
4.000000000000000000e+01
5.000000000000000000e+01
1.000000000000000000e+02
1.500000000000000000e+02
9.000000000000000000e+00
1.312200000000000000e+04
1.000000000000000000e+00
2.000000000000000000e+00
3.000000000000000000e+00
4.000000000000000000e+00
5.000000000000000000e+00
6.000000000000000000e+00
2.555142232726133056e+00
1.665026190344092782e+01
2.531558426285295980e+02
8.313281965771877367e+03
4.313073631144546671e+05
2.719647439984742180e+07
1.478305200041451828e+00
4.388807253782041506e+00
1.956439116084689900e+01
1.151884986279060143e+02
8.254590783174073749e+02
6.805977227695769216e+03
1.239818730604036467e+00
3.160028988547498585e+00
1.251725826799169816e+01
6.939938498032951486e+01
5.033570939795282015e+02
4.459877843915839549e+03
1.133235289399552981e+00
2.576539175829840822e+00
8.926674522803857315e+00
4.173997585135216326e+01
2.446719486458744939e+02
1.702509668835867615e+03
1.064041474938441922e+00
2.255167541691441624e+00
7.174098381287770110e+00
3.044322736178071764e+01
1.608143559329458299e+02
1.002702561392602547e+03
1.045826938177992771e+00
2.189617310253815674e+00
6.915406121444416243e+00
2.903537195179729835e+01
1.495392097003646654e+02
8.937272913204533324e+02
1.024877142245706585e+00
2.090790403979679191e+00
6.443741802491051551e+00
2.694242056002490671e+01
1.421820949202537179e+02
8.898147748786975626e+02
1.010512920739556897e+00
2.023546894173269273e+00
6.067091805703868523e+00
2.413317465319043365e+01
1.185908656892233068e+02
6.863236978236434425e+02
9.873935154735938857e-01
1.922864120769362861e+00
5.614564041188578436e+00
2.243603487497432880e+01
1.180877281899749249e+02
7.897613451852978415e+02
1.021044146320059243e+00
2.106382126746308980e+00
6.513405206399610847e+00
2.636750814561105116e+01
1.279980205919312795e+02
7.015199045721545872e+02
1.030537110938789080e+00
2.128024138845163282e+00
6.825091688094465425e+00
3.210870567867304004e+01
2.208086540580160317e+02
2.096922979065287564e+03
1.001640933838642278e+00
2.031238152311130918e+00
6.241359699617320622e+00
2.566572839818332241e+01
1.306827541202406167e+02
7.772487484328649998e+02
1.017924519668093719e+00
2.067781979784983903e+00
6.292273250588878319e+00
2.514792045047749980e+01
1.217269437833663090e+02
6.759077565256326352e+02
9.864360834732840422e-01
1.954818739097472058e+00
5.877006082509881324e+00
2.349637032249907875e+01
1.157155976489148657e+02
6.709081295417760202e+02
9.836976914521332604e-01
1.951607410914043328e+00
5.760866353171557819e+00
2.216427838278158191e+01
1.028381421852305522e+02
5.464239161526116959e+02
