# Order: depth_list, dim_list, N_list, design_list 
# depthlen : 15
# dimlen : 1
# Nlen : 1
# designlen : 6
2.000000000000000000e+00
4.000000000000000000e+00
6.000000000000000000e+00
8.000000000000000000e+00
1.000000000000000000e+01
1.200000000000000000e+01
1.400000000000000000e+01
1.600000000000000000e+01
1.800000000000000000e+01
2.000000000000000000e+01
3.000000000000000000e+01
4.000000000000000000e+01
5.000000000000000000e+01
1.000000000000000000e+02
1.500000000000000000e+02
9.000000000000000000e+00
1.312200000000000000e+04
1.000000000000000000e+00
2.000000000000000000e+00
3.000000000000000000e+00
4.000000000000000000e+00
5.000000000000000000e+00
6.000000000000000000e+00
2.552903703376709021e+00
1.583576536703233728e+01
1.936879017414320572e+02
4.029304694898116395e+03
1.180591046653489757e+05
4.200963361318021081e+06
1.462791731745725743e+00
4.300938049666444662e+00
1.901295397184372504e+01
1.116638394502546845e+02
8.091146106599218228e+02
6.847463135251799031e+03
1.213607240163162571e+00
2.932610972198553156e+00
1.054123127677703309e+01
4.976395502967277196e+01
2.876182638099980977e+02
1.943572005169372233e+03
1.103739916155769052e+00
2.403458603620883149e+00
7.706946049665232223e+00
3.193383756539805063e+01
1.589416620532183799e+02
9.099857449975097552e+02
1.096241610415377599e+00
2.427610784777678887e+00
8.263612699827906027e+00
3.866989268324027762e+01
2.330235093893120677e+02
1.717171714261352463e+03
1.041583430300945468e+00
2.169313633847305134e+00
7.115134611327111891e+00
3.374744742830929312e+01
2.141583635876092444e+02
1.669066509410941080e+03
1.008903113343277314e+00
1.994880497460770563e+00
5.820550345672636183e+00
2.253458965912381728e+01
1.101693912601648293e+02
6.584972526033955091e+02
1.021624362247496309e+00
2.123936933742102351e+00
6.695321783010498073e+00
2.848878680913475137e+01
1.546558196899872257e+02
1.030580991463310511e+03
1.015270466427445895e+00
2.077331313273193203e+00
6.288507348099225069e+00
2.470209743510045897e+01
1.174323332013449601e+02
6.471592024837603958e+02
1.017885711223483591e+00
2.054095048088846021e+00
6.362906167870009178e+00
2.746250449008179828e+01
1.544063844415540814e+02
1.056547555979491108e+03
9.916676292239178236e-01
1.950876131879969666e+00
5.711211268412323960e+00
2.205426164402324929e+01
1.043391189499774896e+02
5.740744135525512775e+02
9.992560816498889942e-01
1.984180634775808416e+00
5.859417120210967056e+00
2.272939975007295388e+01
1.077176905120773398e+02
5.946326476729163915e+02
1.008819722680819542e+00
2.002271513313162554e+00
5.890590871225265701e+00
2.302117940539785224e+01
1.129751761616661128e+02
6.663828650821689052e+02
9.687543987119300315e-01
1.887570995619208380e+00
5.476203893280152890e+00
2.086859429979524805e+01
9.728995907283517397e+01
5.288851789599142421e+02
9.959064101885577447e-01
1.959342938772548504e+00
5.832055137717013338e+00
2.342489181243112739e+01
1.175109259715623438e+02
6.925405689934509610e+02
