# Order: depth_list, dim_list, N_list, design_list 
# depthlen : 15
# dimlen : 1
# Nlen : 1
# designlen : 6
2.000000000000000000e+00
4.000000000000000000e+00
6.000000000000000000e+00
8.000000000000000000e+00
1.000000000000000000e+01
1.200000000000000000e+01
1.400000000000000000e+01
1.600000000000000000e+01
1.800000000000000000e+01
2.000000000000000000e+01
3.000000000000000000e+01
4.000000000000000000e+01
5.000000000000000000e+01
1.000000000000000000e+02
1.500000000000000000e+02
9.000000000000000000e+00
1.312200000000000000e+04
1.000000000000000000e+00
2.000000000000000000e+00
3.000000000000000000e+00
4.000000000000000000e+00
5.000000000000000000e+00
6.000000000000000000e+00
1.079214878330586158e+00
2.361073010422467977e+00
7.756854658866926933e+00
3.336025695631924037e+01
1.733665611737467600e+02
1.033520924742061652e+03
1.026114660693501657e+00
2.113964917563236234e+00
6.514410035828634982e+00
2.671065510936351828e+01
1.355173575962748487e+02
8.026566341994562208e+02
9.818157732187747788e-01
1.937403134628664203e+00
5.879935409729406537e+00
2.442195379010424361e+01
1.275277828866450989e+02
7.812614390081105284e+02
9.752306746599063159e-01
1.865688306092817994e+00
5.176013385309102155e+00
1.831889969168641485e+01
7.701231248236616977e+01
3.676776534246071151e+02
1.011666314798199018e+00
2.052050822689403642e+00
6.249834488243212860e+00
2.520165908247893327e+01
1.244667482282557245e+02
7.129865627570598008e+02
9.962957539788109829e-01
2.012695103112612571e+00
6.353544764896645880e+00
2.934675470035607603e+01
1.921025518328450516e+02
1.645250164667884746e+03
1.023616875668107440e+00
2.120296812149654375e+00
6.810788671102984360e+00
3.131078555077311165e+01
1.973690867552054158e+02
1.610946428470298315e+03
9.989421496653223542e-01
2.006613955573622654e+00
6.084527113247789387e+00
2.490746827025616739e+01
1.305751219450748408e+02
8.444063816692616911e+02
1.004713098267441929e+00
2.024250568836627018e+00
6.188285795030427749e+00
2.584510200952874470e+01
1.398039423382876976e+02
9.387469374561292170e+02
9.942103923419947087e-01
1.969285784439050113e+00
5.777463781172968993e+00
2.207826216971923827e+01
1.025229780120104266e+02
5.545268140254383979e+02
1.001219644133977349e+00
1.947648903550583732e+00
5.441583442131600279e+00
1.924602483453898216e+01
8.068860176802313333e+01
3.862419372986294661e+02
1.015677367769778794e+00
2.053700345511147329e+00
6.215851944800456330e+00
2.538071768014205887e+01
1.323550699397739550e+02
8.386804298205584018e+02
9.992036846915056669e-01
1.990640229107729642e+00
5.996081969983254822e+00
2.433766458114043374e+01
1.243570293053834774e+02
7.597292327661236868e+02
1.021237845461460791e+00
2.095247655457725067e+00
6.339516326979741656e+00
2.447981158444362748e+01
1.108623491813790594e+02
5.594235053858449191e+02
9.889436274109254521e-01
1.950286928981738388e+00
5.775791989728651821e+00
2.275563965137616762e+01
1.102401636283738213e+02
6.178624537444235330e+02
