# Order: depth_list, dim_list, N_list, design_list 
# depthlen : 14
# dimlen : 1
# Nlen : 1
# designlen : 12
2.000000000000000000e+00
4.000000000000000000e+00
6.000000000000000000e+00
8.000000000000000000e+00
1.000000000000000000e+01
1.200000000000000000e+01
1.400000000000000000e+01
1.600000000000000000e+01
1.800000000000000000e+01
2.000000000000000000e+01
3.000000000000000000e+01
4.000000000000000000e+01
8.000000000000000000e+01
1.200000000000000000e+02
9.000000000000000000e+00
1.312200000000000000e+04
1.000000000000000000e+00
2.000000000000000000e+00
3.000000000000000000e+00
4.000000000000000000e+00
5.000000000000000000e+00
6.000000000000000000e+00
7.000000000000000000e+00
8.000000000000000000e+00
9.000000000000000000e+00
1.000000000000000000e+01
1.100000000000000000e+01
1.200000000000000000e+01
1.068293373298604854e+00
2.273779667621381506e+00
7.172841322465307812e+00
2.946716074732411528e+01
1.461649027820084541e+02
8.324154615761425475e+02
5.251620322949129331e+03
3.575899222162547812e+04
2.578438580483504338e+05
1.941838520549257286e+06
1.512209719380502217e+07
1.208901376859322190e+08
9.913605022813094525e-01
1.968054205030199899e+00
5.949395219399149504e+00
2.401867430868228226e+01
1.186775255110640188e+02
6.764088186277959949e+02
4.276636325453247082e+03
2.922210766611572762e+04
2.118994788203478965e+05
1.609109345916391816e+06
1.266860689620458893e+07
1.026184226055284292e+08
1.008633192271900736e+00
2.018687995569411253e+00
5.893321590747375716e+00
2.198837371714117594e+01
9.725372102118366513e+01
4.863430660018824483e+02
2.664935420581162816e+03
1.565934988084847646e+04
9.717901060429326026e+04
6.299011631845824886e+05
4.229616344161218032e+06
2.923729910427225754e+07
9.902360882399316999e-01
1.983674097866561681e+00
6.167933164617664943e+00
2.653202027584537603e+01
1.448797775841240991e+02
9.329901347345788736e+02
6.699497579348295403e+03
5.166339524959972914e+04
4.179080006476345588e+05
3.494991864858928137e+06
2.994661764983106777e+07
2.613635776982437074e+08
1.012169444259935824e+00
2.047942889168119507e+00
6.233064118239568963e+00
2.521779661787497417e+01
1.249267729883846556e+02
7.128370044450244905e+02
4.485855560569851150e+03
3.023505528746515483e+04
2.140818752943652216e+05
1.571953026049026055e+06
1.186462177671555616e+07
9.148061654298406839e+07
9.818587909433165173e-01
1.951123774209074124e+00
5.888103777307033937e+00
2.357748182585661212e+01
1.149609374715320769e+02
6.441233360740734497e+02
3.987936611902054665e+03
2.656664976990274226e+04
1.869648544144586194e+05
1.372105996605299180e+06
1.040278871464106999e+07
8.091673207556770742e+07
9.909634741126349677e-01
1.931702622647036405e+00
5.596625102618890679e+00
2.150510441184056631e+01
1.022824856327355718e+02
5.712075699097838424e+02
3.593257546295695647e+03
2.468355481016367776e+04
1.810894071550300869e+05
1.396660290910812793e+06
1.119598464617376961e+07
9.250175349336659908e+07
1.016460886135759800e+00
2.059292435019564049e+00
6.390873308296741939e+00
2.719795990940247066e+01
1.463548082319200034e+02
9.312084833707713187e+02
6.660215059032559111e+03
5.169435002179664298e+04
4.251853899769528653e+05
3.646636809260778595e+06
3.225346446692276001e+07
2.919272266694059968e+08
1.002010972754131313e+00
2.002227673756552750e+00
5.962433693319201922e+00
2.339328399499205347e+01
1.129154500582721994e+02
6.398767750279813527e+02
4.103189208058753138e+03
2.889577984037829447e+04
2.182610969975558401e+05
1.736715944347109413e+06
1.436399183922761306e+07
1.222760740245427936e+08
9.865799952212055413e-01
1.954970159459873846e+00
5.802699108897727776e+00
2.275625683265936772e+01
1.088433409811601535e+02
5.989225096429477162e+02
3.634357699732439869e+03
2.361519248943183266e+04
1.610786270644135948e+05
1.138164561901660869e+06
8.256874059081465937e+06
6.112409409407991171e+07
9.875241692547311878e-01
1.951891159034571110e+00
5.764736782871908716e+00
2.233876821150658287e+01
1.049092353455945101e+02
5.645668306592765475e+02
3.341840570074212792e+03
2.113671929496915254e+04
1.400671479959847347e+05
9.599754551843650406e+05
6.747495075521758758e+06
4.836993102484496683e+07
1.004660629873795452e+00
2.002562774641260201e+00
5.987719582585335765e+00
2.385137989997166841e+01
1.182061099373508881e+02
6.940860517913341710e+02
4.637924441780326561e+03
3.409882553207626916e+04
2.686039667248759652e+05
2.222700937508814968e+06
1.905326532452661544e+07
1.675566620629769564e+08
1.002548640499332899e+00
1.960191531058168568e+00
5.611300848090197135e+00
2.106108064763908416e+01
9.782019206095877450e+01
5.376666722238051079e+02
3.355711643626910245e+03
2.294343576287932228e+04
1.671648106575098063e+05
1.273029484082756797e+06
1.000325326207626611e+07
8.042431430621106923e+07
1.003220325630527210e+00
2.034746990045498194e+00
6.196850621816869520e+00
2.467314446172510856e+01
1.177671755563504377e+02
6.350765473635741500e+02
3.717472419128184356e+03
2.301291829927770232e+04
1.481787017880524218e+05
9.819484183961995877e+05
6.650971731635002419e+06
4.583109958549830317e+07
