# Order: depth_list, dim_list, N_list, design_list 
# depthlen : 14
# dimlen : 1
# Nlen : 1
# designlen : 12
2.000000000000000000e+00
4.000000000000000000e+00
6.000000000000000000e+00
8.000000000000000000e+00
1.000000000000000000e+01
1.200000000000000000e+01
1.400000000000000000e+01
1.600000000000000000e+01
1.800000000000000000e+01
2.000000000000000000e+01
3.000000000000000000e+01
4.000000000000000000e+01
8.000000000000000000e+01
1.200000000000000000e+02
9.000000000000000000e+00
1.312200000000000000e+04
1.000000000000000000e+00
2.000000000000000000e+00
3.000000000000000000e+00
4.000000000000000000e+00
5.000000000000000000e+00
6.000000000000000000e+00
7.000000000000000000e+00
8.000000000000000000e+00
9.000000000000000000e+00
1.000000000000000000e+01
1.100000000000000000e+01
1.200000000000000000e+01
1.080791718219608066e+00
2.358163283084276252e+00
7.625789793077197842e+00
3.185849672218707695e+01
1.587507588002919192e+02
8.964346019760072295e+02
5.543616557513385487e+03
3.667782457225749386e+04
2.554264853721311083e+05
1.850580916887784842e+06
1.382986498347786814e+07
1.059330250140008628e+08
9.837398249958320129e-01
1.895449197611063674e+00
5.361838309680732273e+00
1.980075379116633982e+01
8.987654488716810874e+01
4.843127178273091431e+02
3.019604485257352735e+03
2.123747304095639993e+04
1.640734235731627559e+05
1.357823434113713680e+06
1.178876822413821332e+07
1.057189194922701865e+08
9.944107253831532267e-01
1.980977508196559267e+00
5.913508977098420161e+00
2.365717771923659640e+01
1.192071799994764660e+02
7.235892847064144462e+02
5.091878899335119968e+03
4.010788574531282939e+04
3.429760159576881560e+05
3.107280182617737912e+06
2.929366534627814963e+07
2.837912411101500392e+08
1.006331297144648085e+00
1.966208533647600287e+00
5.615786496227812563e+00
2.076822747829431393e+01
9.265865172528498306e+01
4.756079668781216583e+02
2.712170772821174069e+03
1.672736057127446838e+04
1.092984811995876080e+05
7.449614969936548732e+05
5.236502735357160680e+06
3.765120329963468760e+07
9.903427829694483320e-01
2.001406457825959606e+00
6.081383770903820540e+00
2.447953910953043888e+01
1.223766851935283597e+02
7.274156886772939288e+02
4.944906126799690355e+03
3.708925075483791443e+04
2.979512347512877895e+05
2.507676749973810744e+06
2.177861279759266227e+07
1.932191033367193639e+08
1.003378679960389874e+00
1.968029601705990173e+00
5.653155892716278608e+00
2.086062901521198754e+01
9.133193297504777775e+01
4.507662282646859921e+02
2.425045386926782612e+03
1.390182157929190544e+04
8.358581461237577605e+04
5.211674585152052459e+05
3.342014312276482116e+06
2.190592542930990085e+07
9.999550384772080136e-01
2.013142445854967821e+00
6.123559674070820691e+00
2.462259360098812877e+01
1.206360912671500927e+02
6.821563537550198362e+02
4.291002184272037084e+03
2.927016883778583724e+04
2.125871615355852118e+05
1.621676596210761461e+06
1.285729216240702569e+07
1.050837086004221141e+08
1.004520092819011667e+00
2.012857522271538357e+00
6.001128633672265345e+00
2.336411362660879121e+01
1.103403617996209505e+02
6.033263555839318997e+02
3.698120373808947988e+03
2.479933233308470517e+04
1.784385579193028389e+05
1.356098464157851413e+06
1.074921560909275711e+07
8.799495748691301048e+07
9.992622858834000477e-01
2.012898253732126719e+00
6.078004080503900397e+00
2.473965628043207232e+01
1.277829203424558813e+02
7.972373894327625976e+02
5.737410106227857796e+03
4.571266901595851959e+04
3.902951566790596698e+05
3.488386899403132033e+06
3.212976827916672081e+07
3.018665429104831219e+08
9.974117807575758610e-01
2.011416627455692385e+00
6.206251054827106373e+00
2.571477373444192693e+01
1.315207486846298366e+02
7.835102361081327444e+02
5.218466724557262751e+03
3.773556537890079198e+04
2.900629950003069243e+05
2.334218746499184519e+06
1.944892998777725175e+07
1.664365190557807088e+08
1.020024698970395605e+00
2.085156204030323313e+00
6.403959859995463688e+00
2.619733748055301348e+01
1.339029092258861340e+02
8.236208143930848564e+02
5.923101641213268522e+03
4.834125798668202333e+04
4.339410201995211537e+05
4.163751734573358670e+06
4.175694820938514173e+07
4.308030484689739943e+08
1.003928088530559926e+00
2.028802062034655407e+00
6.279951265728854537e+00
2.702404466523497106e+01
1.531878927209173469e+02
1.084668120485748659e+03
9.041700967152211888e+03
8.406404184954192897e+04
8.374335268779176986e+05
8.708788019170770422e+06
9.305973864959722757e+07
1.012213302128679872e+09
9.868083944067708169e-01
1.925721778930865602e+00
5.572101496557352540e+00
2.130210867534197305e+01
1.017464840484553150e+02
5.886852499112060286e+02
4.018439051970661694e+03
3.134638725181289919e+04
2.697142965269280248e+05
2.479804352414533030e+06
2.378757535307554156e+07
2.342789854895227253e+08
1.026238030746128960e+00
2.089178922372467273e+00
6.316767065061383413e+00
2.526509692235205407e+01
1.253853645601364093e+02
7.390538937990747854e+02
5.002720426527650488e+03
3.781460488828074449e+04
3.114527495340148453e+05
2.736354805385789834e+06
2.519801963234865665e+07
2.398948642724498212e+08
