# Order: depth_list, dim_list, N_list, design_list 
# depthlen : 14
# dimlen : 1
# Nlen : 1
# designlen : 3
2.000000000000000000e+00
4.000000000000000000e+00
6.000000000000000000e+00
8.000000000000000000e+00
1.000000000000000000e+01
1.200000000000000000e+01
1.400000000000000000e+01
1.600000000000000000e+01
1.800000000000000000e+01
2.000000000000000000e+01
3.000000000000000000e+01
4.000000000000000000e+01
8.000000000000000000e+01
1.200000000000000000e+02
9.000000000000000000e+00
1.312200000000000000e+04
1.000000000000000000e+00
2.000000000000000000e+00
3.000000000000000000e+00
2.081265672745130413e+00
9.280389878173124885e+00
6.929109438154564771e+01
1.383432004265004567e+00
3.837592907289669508e+00
1.603004723244945495e+01
1.167853545032722318e+00
2.728906737099243696e+00
9.480743815770313887e+00
1.077129935970315477e+00
2.290539511913645576e+00
7.219676081165788517e+00
1.053026113787205231e+00
2.216360981548841647e+00
6.933318918770905448e+00
