# number_particles=1
# length=12
# keep in mind that the imaginary part is discarded.
2.000000000000000000e+00
4.000000000000000000e+00
8.000000000000000000e+00
1.600000000000000000e+01
2.400000000000000000e+01
3.200000000000000000e+01
4.200000000000000000e+01
5.300000000000000000e+01
6.400000000000000000e+01
1.280000000000000000e+02
2.560000000000000000e+02
5.120000000000000000e+02
9.025003910064697266e-01
8.145073056221008301e-01
6.634203195571899414e-01
4.401264786720275879e-01
2.919895052909851074e-01
1.937113702297210693e-01
1.159821972250938416e-01
6.597074121236801147e-02
3.752415254712104797e-02
1.408061361871659756e-03
1.982637286346289329e-06
3.931026944931081957e-12
