# number_particles=1
# length=14
# keep in mind that the imaginary part is discarded.
2.000000000000000000e+00
8.000000000000000000e+00
1.600000000000000000e+01
3.200000000000000000e+01
4.800000000000000000e+01
6.400000000000000000e+01
8.000000000000000000e+01
1.120000000000000000e+02
1.440000000000000000e+02
1.760000000000000000e+02
2.080000000000000000e+02
2.560000000000000000e+02
3.200000000000000000e+02
5.120000000000000000e+02
9.801015257835388184e-01
9.227434396743774414e-01
8.514590263366699219e-01
7.249798774719238281e-01
6.172902584075927734e-01
5.255964994430541992e-01
4.475229680538177490e-01
3.244456648826599121e-01
2.352165430784225464e-01
1.705273985862731934e-01
1.236290112137794495e-01
7.631511986255645752e-02
4.011087119579315186e-02
5.823979619890451431e-03
