# number_particles=1
# length=14
# keep in mind that the imaginary part is discarded.
2.000000000000000000e+00
8.000000000000000000e+00
1.600000000000000000e+01
3.200000000000000000e+01
4.800000000000000000e+01
6.400000000000000000e+01
8.000000000000000000e+01
1.120000000000000000e+02
1.440000000000000000e+02
1.760000000000000000e+02
2.080000000000000000e+02
2.560000000000000000e+02
3.200000000000000000e+02
5.120000000000000000e+02
9.800994992256164551e-01
9.227449297904968262e-01
8.514568805694580078e-01
7.249805927276611328e-01
6.172900795936584473e-01
5.255966782569885254e-01
4.475230574607849121e-01
3.244454562664031982e-01
2.352163642644882202e-01
1.705272644758224487e-01
1.236290186643600464e-01
7.631498575210571289e-02
4.011089727282524109e-02
5.823973100632429123e-03
