# Order: depth_list, dim_list, N_list, design_list 
# depthlen : 15
# dimlen : 1
# Nlen : 1
# designlen : 6
2.000000000000000000e+00
4.000000000000000000e+00
6.000000000000000000e+00
8.000000000000000000e+00
1.000000000000000000e+01
1.200000000000000000e+01
1.400000000000000000e+01
1.600000000000000000e+01
1.800000000000000000e+01
2.000000000000000000e+01
3.000000000000000000e+01
4.000000000000000000e+01
5.000000000000000000e+01
1.000000000000000000e+02
1.500000000000000000e+02
9.000000000000000000e+00
1.312200000000000000e+04
1.000000000000000000e+00
2.000000000000000000e+00
3.000000000000000000e+00
4.000000000000000000e+00
5.000000000000000000e+00
6.000000000000000000e+00
1.115683472945320220e+00
2.541239349328712205e+00
8.869414255471831154e+00
4.257074694650579261e+01
2.629729473627267566e+02
1.967363366213641029e+03
9.959750780061392694e-01
2.021327999619320970e+00
6.173962326157740321e+00
2.495129536042590246e+01
1.245575043076794941e+02
7.376423550706673495e+02
9.830674987099313755e-01
1.924144684468541255e+00
5.617119679479152694e+00
2.172771367048604674e+01
1.038483792854325145e+02
5.829075888718783744e+02
1.019155927364008729e+00
2.019220006115746813e+00
5.882440867752126046e+00
2.237934071082204213e+01
1.037514672285213209e+02
5.592796591948997502e+02
9.850595319988112442e-01
1.914921847025296886e+00
5.519235816040189313e+00
2.125384268649304076e+01
1.038323892195419944e+02
6.171493372371173791e+02
9.999376442744224436e-01
2.031912820440678669e+00
6.206764427612816881e+00
2.513261878382038716e+01
1.253490104487652843e+02
7.312437700733490828e+02
9.931122013943329829e-01
2.008263659815039404e+00
6.123458769987934147e+00
2.459944658580035082e+01
1.199882106638884238e+02
6.722295318484415247e+02
9.911809824696822258e-01
1.934542575214212023e+00
5.517676963248420385e+00
2.027206646523950795e+01
8.956121691443638611e+01
4.560124439116076474e+02
1.005499011647388752e+00
2.001231890583737627e+00
5.945999182535697258e+00
2.365013001061146980e+01
1.186517067865949713e+02
7.158786010133554782e+02
1.009802331183256907e+00
2.049751199076589092e+00
6.137712071966576310e+00
2.373464748074719211e+01
1.101046956582917318e+02
5.839751175479982521e+02
1.001007785171098563e+00
2.032225142869302115e+00
6.363740935327511394e+00
2.794484653278965780e+01
1.640248179287225128e+02
1.217053124383593286e+03
9.685008387307321165e-01
1.933206832612511805e+00
6.020549639391721719e+00
2.635093593993795125e+01
1.513002408563099266e+02
1.061450098238517512e+03
9.988873853865685160e-01
1.994593107058654891e+00
6.002341057386526124e+00
2.417870734627715024e+01
1.226729412648680295e+02
7.525570567851601709e+02
1.022800640907575387e+00
2.098585822696969583e+00
6.545046124040514002e+00
2.787864899790519502e+01
1.543778640336386729e+02
1.077959290881079141e+03
9.947552500235449235e-01
2.009254947603994257e+00
6.231980768204430809e+00
2.705772865324453491e+01
1.584336619745022858e+02
1.202607253571517731e+03
