# Order: depth_list, dim_list, N_list, design_list 
# depthlen : 1
# dimlen : 1
# Nlen : 1
# designlen : 3
2.000000000000000000e+01
9.000000000000000000e+00
1.312200000000000000e+04
1.000000000000000000e+00
2.000000000000000000e+00
3.000000000000000000e+00
9.928976357818243281e-01
1.933727642824087267e+00
5.559366192645228466e+00
