# Order: depth_list, dim_list, N_list, design_list 
# depthlen : 15
# dimlen : 1
# Nlen : 1
# designlen : 6
2.000000000000000000e+00
4.000000000000000000e+00
6.000000000000000000e+00
8.000000000000000000e+00
1.000000000000000000e+01
1.200000000000000000e+01
1.400000000000000000e+01
1.600000000000000000e+01
1.800000000000000000e+01
2.000000000000000000e+01
3.000000000000000000e+01
4.000000000000000000e+01
5.000000000000000000e+01
1.000000000000000000e+02
1.500000000000000000e+02
9.000000000000000000e+00
1.312200000000000000e+04
1.000000000000000000e+00
2.000000000000000000e+00
3.000000000000000000e+00
4.000000000000000000e+00
5.000000000000000000e+00
6.000000000000000000e+00
1.144519189785679680e+00
2.693413909717121246e+00
9.694470082100608010e+00
4.704070410974185990e+01
2.859934806356753256e+02
2.060773029091963508e+03
1.000120144102360387e+00
2.004929530402691729e+00
6.065724372033496792e+00
2.454175127372481313e+01
1.228136155983360993e+02
7.162522551265415132e+02
1.002310226126212900e+00
2.030228066366338791e+00
6.269718125918864793e+00
2.625923229669523451e+01
1.394190049871170629e+02
8.939535377370192464e+02
1.021794535573707252e+00
2.061992688828152787e+00
6.059371464373289662e+00
2.284248030050447653e+01
1.029232047803891561e+02
5.298303704525250168e+02
1.002290898855023205e+00
1.991642154874168291e+00
5.869378031016994512e+00
2.240987092684725113e+01
1.018252906574455778e+02
5.201400026194519342e+02
1.004410265004934910e+00
2.013673829081930045e+00
5.942994868818991527e+00
2.273359801066337127e+01
1.044662949283049471e+02
5.478638721221029755e+02
9.960755132207951279e-01
1.957904431137108769e+00
5.682570931051415641e+00
2.136053964626409041e+01
9.646697843896004088e+01
4.988129094883664720e+02
1.007930677065792313e+00
2.034260997908341917e+00
6.238842346423140839e+00
2.564383605725880955e+01
1.298824390470260539e+02
7.623301260394723613e+02
9.742447636303157577e-01
1.905808129429681808e+00
5.604364249857451519e+00
2.193346588549184517e+01
1.065561312646205891e+02
6.113067870753037596e+02
1.015092876167145386e+00
2.077425402019521528e+00
6.524562723228369165e+00
2.848907723317158869e+01
1.656181405492281158e+02
1.234814628351777856e+03
9.922304409074153009e-01
1.951216834600262073e+00
5.780385274621202996e+00
2.301079039100418910e+01
1.140052050028288591e+02
6.613399811257803549e+02
1.021039993513666699e+00
2.109706392880066339e+00
6.556680460390484910e+00
2.702540120357503994e+01
1.384223711084038086e+02
8.418060943357702399e+02
9.827219711110887213e-01
1.915315792167686881e+00
5.628634271329725713e+00
2.270889381107666338e+01
1.217837603194753200e+02
8.450962074162792987e+02
9.994149345841134569e-01
1.935590085797318283e+00
5.411851594380589603e+00
1.947122872875194588e+01
8.454357002058510773e+01
4.237265104427548295e+02
9.903633661845108183e-01
1.956454572586699747e+00
5.793241973077982720e+00
2.252906948251860442e+01
1.053846866971020830e+02
5.581725925630939855e+02
