# number_particles=2
# length=7
# keep in mind that the imaginary part is discarded.
2.000000000000000000e+00
4.000000000000000000e+00
8.000000000000000000e+00
1.600000000000000000e+01
3.200000000000000000e+01
6.400000000000000000e+01
1.280000000000000000e+02
-1.421738564968109131e-01
-1.322629675269126892e-02
3.856324777007102966e-02
-2.351298741996288300e-02
2.269191294908523560e-02
-1.968693220987915993e-03
-1.900203339755535126e-02
1.220450997352600098e+00
1.106524586677551270e+00
8.141250014305114746e-01
5.990914702415466309e-01
2.280073612928390503e-01
4.461220651865005493e-02
-1.229000091552734375e-02
