# Order: depth_list, dim_list, N_list, design_list 
# depthlen : 14
# dimlen : 1
# Nlen : 1
# designlen : 3
2.000000000000000000e+00
4.000000000000000000e+00
6.000000000000000000e+00
8.000000000000000000e+00
1.000000000000000000e+01
1.200000000000000000e+01
1.400000000000000000e+01
1.600000000000000000e+01
1.800000000000000000e+01
2.000000000000000000e+01
3.000000000000000000e+01
4.000000000000000000e+01
8.000000000000000000e+01
1.000000000000000000e+02
4.000000000000000000e+00
1.312200000000000000e+04
1.000000000000000000e+00
2.000000000000000000e+00
3.000000000000000000e+00
9.932698054979867130e-01
1.984568221125617038e+00
5.939034661976561047e+00
1.007738955844078577e+00
2.064702666467392866e+00
6.426099031661895111e+00
1.001508619738761485e+00
1.978925579323942197e+00
5.759225433329537402e+00
1.013934186339290777e+00
2.061611976453471051e+00
6.274669312506145680e+00
9.906075187025961126e-01
1.958635609573240677e+00
5.793089534450728273e+00
9.942882341920469269e-01
1.974267418904438021e+00
5.823203655731788331e+00
1.025191721734805439e+00
2.077506778794978803e+00
6.369269584017993147e+00
1.004721612566588984e+00
2.033535583633014898e+00
6.214684878607401153e+00
9.862711872406355607e-01
1.925098210715745495e+00
5.549716674147283868e+00
9.987629658901485685e-01
1.992491753050801062e+00
5.975434928016196245e+00
9.972981671752352284e-01
1.969879873045950802e+00
6.048419183035639080e+00
1.005164182372965787e+00
2.023335054949001677e+00
6.206971252312896148e+00
1.012741748544615072e+00
2.006843904286551350e+00
5.804754237145235862e+00
9.927710435894352425e-01
1.978172535637298113e+00
5.905030041939509644e+00
