# number_particles=2
# length=6
# keep in mind that the imaginary part is discarded.
2.000000000000000000e+00
4.000000000000000000e+00
8.000000000000000000e+00
1.600000000000000000e+01
3.200000000000000000e+01
6.400000000000000000e+01
-6.063456088304519653e-02
7.410730421543121338e-02
1.279051452875137329e-01
3.662412986159324646e-02
-6.693396717309951782e-03
3.614147193729877472e-03
1.274354696273803711e+00
1.174226760864257812e+00
8.625639677047729492e-01
6.384571194648742676e-01
2.547928094863891602e-01
1.537104602903127670e-02
