# number_particles=2
# length=6
# keep in mind that the imaginary part is discarded.
2.000000000000000000e+00
4.000000000000000000e+00
8.000000000000000000e+00
1.600000000000000000e+01
3.200000000000000000e+01
6.400000000000000000e+01
1.906145922839641571e-02
-1.504557132720947266e-01
-8.800296485424041748e-02
-7.961424998939037323e-03
-7.658798713237047195e-03
-4.495112691074609756e-03
1.144883036613464355e+00
1.068827271461486816e+00
8.115392923355102539e-01
6.160929799079895020e-01
2.547563910484313965e-01
4.800371453166007996e-02
