# Order: depth_list, dim_list, N_list, design_list 
# depthlen : 14
# dimlen : 1
# Nlen : 1
# designlen : 12
2.000000000000000000e+00
4.000000000000000000e+00
6.000000000000000000e+00
8.000000000000000000e+00
1.000000000000000000e+01
1.200000000000000000e+01
1.400000000000000000e+01
1.600000000000000000e+01
1.800000000000000000e+01
2.000000000000000000e+01
3.000000000000000000e+01
4.000000000000000000e+01
8.000000000000000000e+01
1.200000000000000000e+02
9.000000000000000000e+00
1.312200000000000000e+04
1.000000000000000000e+00
2.000000000000000000e+00
3.000000000000000000e+00
4.000000000000000000e+00
5.000000000000000000e+00
6.000000000000000000e+00
7.000000000000000000e+00
8.000000000000000000e+00
9.000000000000000000e+00
1.000000000000000000e+01
1.100000000000000000e+01
1.200000000000000000e+01
1.069662564344988853e+00
2.327738394548741319e+00
7.855357512430046540e+00
3.698201622039415071e+01
2.257369672056278773e+02
1.666306759514486430e+03
1.400326294121393767e+04
1.281940194868985855e+05
1.242143435661322670e+06
1.251318032364205644e+07
1.296071071122180969e+08
1.370493749386034012e+09
1.024189013761513278e+00
2.082528473832430560e+00
6.393019946530709596e+00
2.656321416482818520e+01
1.392579022026731650e+02
8.688404230914570689e+02
6.137236455854186715e+03
4.719641652535594767e+04
3.841927764512884896e+05
3.248388060477815103e+06
2.817688846072342619e+07
2.487430856173521876e+08
1.000896957367698903e+00
1.973495461028581532e+00
5.698536548408871028e+00
2.145023624933799411e+01
9.898377795377567168e+01
5.360421691201426029e+02
3.281305411440115222e+03
2.198302756218353534e+04
1.571027537190175499e+05
1.175315983207573649e+06
9.084313558236526325e+06
7.189680303257271647e+07
1.003317323229515168e+00
1.997381291922282198e+00
5.913506834373130516e+00
2.288228479318032882e+01
1.070979493344935491e+02
5.751314947438312402e+02
3.410598901188934178e+03
2.171671547056169584e+04
1.455114064955684880e+05
1.011496112186076236e+06
7.222560598655643873e+06
5.261110236998607218e+07
9.817547016495012935e-01
1.909242554039284778e+00
5.492867433119783094e+00
2.078320157892931874e+01
9.735682006678474920e+01
5.427033216894120642e+02
3.475099320942939812e+03
2.469173658610413986e+04
1.887885215760284627e+05
1.516621993880120339e+06
1.258885420612994395e+07
1.067829028907761574e+08
9.935147810110709354e-01
2.012881321256505984e+00
6.274854220267196858e+00
2.658221279039856810e+01
1.404127538737159568e+02
8.653053059563764009e+02
5.929295795513037774e+03
4.372229111129117518e+04
3.394685926119245705e+05
2.734986616126297042e+06
2.263966714735835791e+07
1.912403608839227259e+08
9.897541246367445034e-01
1.946296310636154381e+00
5.686650303430175413e+00
2.184403091558763066e+01
1.032038253016600322e+02
5.734240564448932673e+02
3.613404615223975725e+03
2.503027763415205482e+04
1.857487283219421806e+05
1.447632035617759218e+06
1.167807192952607945e+07
9.652703586632126570e+07
9.864473768963245570e-01
1.955952988951251914e+00
5.780174648025213635e+00
2.243608398434960094e+01
1.063332186879239600e+02
5.855841949806771254e+02
3.609986568720912601e+03
2.419508212265761904e+04
1.723758842845633917e+05
1.283791078078562161e+06
9.875496056321416050e+06
7.779979685682401061e+07
9.893675020148231525e-01
1.952765303563982258e+00
5.887484002018235074e+00
2.552226560098863573e+01
1.584661764257105290e+02
1.346311854123944386e+03
1.414111456246609850e+04
1.669504885252556123e+05
2.089809047772601480e+06
2.692293833095704019e+07
3.518728457996811271e+08
4.632910446789075851e+09
9.977830993412375449e-01
2.001324348515838736e+00
6.094906917617771924e+00
2.476397787565746000e+01
1.235418087240699094e+02
7.145876880316531015e+02
4.604009274403983000e+03
3.210548332587525510e+04
2.372644163626432710e+05
1.829541738225689158e+06
1.455339100617524981e+07
1.184471511040087491e+08
1.003703872812926612e+00
2.000927739287531093e+00
5.895041516799151893e+00
2.255982533935758738e+01
1.040643775336789929e+02
5.519023178609178331e+02
3.259439014040893198e+03
2.094612272069895698e+04
1.439086496925626998e+05
1.042505714842079557e+06
7.875876193213009275e+06
6.150936493823727965e+07
1.001591469163680026e+00
1.995523164478663958e+00
5.889273002402978463e+00
2.306248713879926981e+01
1.143987984708595320e+02
6.996358706730749191e+02
5.112055535958761538e+03
4.283254169592288235e+04
3.946479967462642817e+05
3.865421861348858569e+06
3.931610958529598266e+07
4.091634990724294186e+08
9.949210820839607949e-01
1.946057589743363847e+00
5.706170167064736454e+00
2.226586273330401866e+01
1.072373143637345123e+02
6.035264856367311950e+02
3.809413882651356289e+03
2.615171412909268838e+04
1.908791984281962214e+05
1.456870778472722275e+06
1.148878732018930092e+07
9.280758895222094655e+07
9.888556284562098897e-01
1.959053114457524281e+00
5.828412199884406064e+00
2.270576512228040400e+01
1.059135497141069209e+02
5.573429578595701059e+02
3.185507323201268264e+03
1.931588738829913927e+04
1.224564858830638550e+05
8.040889696622679476e+05
5.434035998741160147e+06
3.762191519613759220e+07
