# number_particles=1
# length=6
# keep in mind that the imaginary part is discarded.
2.000000000000000000e+00
4.000000000000000000e+00
8.000000000000000000e+00
1.600000000000000000e+01
3.200000000000000000e+01
6.400000000000000000e+01
9.024985432624816895e-01
8.145056962966918945e-01
6.634219884872436523e-01
4.401263296604156494e-01
1.937114149332046509e-01
3.752423077821731567e-02
