# number_particles=1
# length=6
# keep in mind that the imaginary part is discarded.
2.000000000000000000e+00
4.000000000000000000e+00
8.000000000000000000e+00
1.600000000000000000e+01
3.200000000000000000e+01
6.400000000000000000e+01
9.025000333786010742e-01
8.145071864128112793e-01
6.634218096733093262e-01
4.401263296604156494e-01
1.937115788459777832e-01
3.752421960234642029e-02
