# Order: depth_list, dim_list, N_list, design_list 
# depthlen : 3
# dimlen : 1
# Nlen : 10
# designlen : 4
1.000000000000000000e+01
1.000000000000000000e+02
1.000000000000000000e+03
6.000000000000000000e+00
1.000000000000000000e+03
1.000000000000000000e+03
1.000000000000000000e+03
1.000000000000000000e+03
1.000000000000000000e+03
1.000000000000000000e+03
1.000000000000000000e+03
1.000000000000000000e+03
1.000000000000000000e+03
1.000000000000000000e+03
1.000000000000000000e+00
2.000000000000000000e+00
3.000000000000000000e+00
4.000000000000000000e+00
1.101120737789981874e+00
2.560172201490988453e+00
8.945799248441398177e+00
3.956868057292633978e+01
1.053024563051450979e+00
2.169738751700108992e+00
6.586216482266197048e+00
2.553107493249163085e+01
1.042901425024576056e+00
2.339906675298131677e+00
8.425327182885590460e+00
4.087600273047622323e+01
1.027053461077819252e+00
2.155939814533034404e+00
6.867908170636371601e+00
2.890874937452273130e+01
1.006193118934443076e+00
1.952803031372945641e+00
5.603775869169532520e+00
2.120526530315138203e+01
1.032507111706985947e+00
2.036952365624984385e+00
5.912946831027986683e+00
2.194255143499925254e+01
1.078064453747340501e+00
2.267975301282227019e+00
7.197528847421235554e+00
3.047816580532940733e+01
1.060548387140510362e+00
2.334816115437112760e+00
7.927134334952550709e+00
3.575472934800112768e+01
9.777288807153274863e-01
2.029705514111989295e+00
6.640175406210511611e+00
2.865674055008746635e+01
1.043055315829450436e+00
2.195447770374496788e+00
6.935320925195754604e+00
2.944739550689584462e+01
9.604156106216061861e-01
1.770912734540660560e+00
4.585086990991952938e+00
1.459309635430224183e+01
1.111671875415167543e+00
2.548051880247109935e+00
8.878629535323302235e+00
3.972350084492025957e+01
9.900861341827436046e-01
1.857909078961078819e+00
5.023951990586210670e+00
1.706358561252534756e+01
9.391956650913458882e-01
1.849136194296516100e+00
5.463300193365528301e+00
2.118350451076655006e+01
1.033785220174782804e+00
2.231994805433544560e+00
7.347042509866283488e+00
3.167073676045621511e+01
9.507806950393652423e-01
1.878912416095503080e+00
5.651943547620358999e+00
2.234923837352080511e+01
1.002748797196613584e+00
2.029109642966193672e+00
5.975109360762118627e+00
2.170785651462492183e+01
9.826127466393264065e-01
2.045181274601034715e+00
6.620730965690403202e+00
2.889357011947800657e+01
1.013085924118932502e+00
1.876360666218690909e+00
4.584875152138081056e+00
1.295398615718420032e+01
1.016075190886591928e+00
2.150006744662745106e+00
6.785118413898954870e+00
2.774470145851052649e+01
9.577905930707001358e-01
1.843470516375598667e+00
5.421756380302414691e+00
2.138732491771767030e+01
1.088553222810761056e+00
2.421691778762990133e+00
8.442812126902596859e+00
4.022320454017651059e+01
9.699395777413031272e-01
1.805350519494727024e+00
4.772794807134715711e+00
1.594642885199418281e+01
1.014893377648137918e+00
2.120487722826466026e+00
6.765711759187726493e+00
2.834608100905522221e+01
9.954304541061592682e-01
2.015020250126299484e+00
6.330269974450447812e+00
2.668496641900459210e+01
9.873058593331089927e-01
1.854899428459073407e+00
5.039057286156682025e+00
1.756336528383281248e+01
9.410531167127553775e-01
1.747665853419261062e+00
4.941493828896097007e+00
1.936065043539044694e+01
9.904912081637489152e-01
1.939577003388543108e+00
5.547791356037172328e+00
1.989284514247093227e+01
9.894356575777203400e-01
1.892150426115964512e+00
5.062637705000319066e+00
1.648287172908176856e+01
9.871630930442032437e-01
1.975314788403502053e+00
5.557858591185556918e+00
1.899672496539889011e+01
