# Order: depth_list, dim_list, N_list, design_list 
# depthlen : 14
# dimlen : 1
# Nlen : 1
# designlen : 12
2.000000000000000000e+00
4.000000000000000000e+00
6.000000000000000000e+00
8.000000000000000000e+00
1.000000000000000000e+01
1.200000000000000000e+01
1.400000000000000000e+01
1.600000000000000000e+01
1.800000000000000000e+01
2.000000000000000000e+01
3.000000000000000000e+01
4.000000000000000000e+01
8.000000000000000000e+01
1.200000000000000000e+02
9.000000000000000000e+00
1.312200000000000000e+04
1.000000000000000000e+00
2.000000000000000000e+00
3.000000000000000000e+00
4.000000000000000000e+00
5.000000000000000000e+00
6.000000000000000000e+00
7.000000000000000000e+00
8.000000000000000000e+00
9.000000000000000000e+00
1.000000000000000000e+01
1.100000000000000000e+01
1.200000000000000000e+01
1.078455990010040333e+00
2.366593792394322104e+00
7.824127134890365376e+00
3.467110066932767154e+01
1.926338591715714017e+02
1.271593649167848753e+03
9.521718831677268099e+03
7.799363596549499198e+04
6.809461278715223307e+05
6.226259206007202156e+06
5.891772309404660761e+07
5.722845289089976549e+08
1.018921062772621955e+00
2.095764582318102587e+00
6.525267854841369619e+00
2.722773993828044681e+01
1.411467552389777893e+02
8.607736193981402266e+02
5.928669560252362317e+03
4.472108545724769647e+04
3.609445445648911409e+05
3.062749706588479225e+06
2.696606643031821027e+07
2.439682738607348204e+08
9.999479878535768584e-01
1.957057251001343090e+00
5.629638574416634178e+00
2.125421577740974755e+01
9.863368060168481577e+01
5.357636103656410569e+02
3.273998291989336849e+03
2.181467438621836118e+04
1.547938175273797242e+05
1.149930842843869934e+06
8.835405378462076187e+06
6.961291942862598598e+07
1.005444277090913774e+00
2.030140445239062341e+00
6.257569637741006829e+00
2.612194590910463887e+01
1.366840770585779694e+02
8.489516658093102706e+02
6.011305702709858451e+03
4.700371340377925662e+04
3.955449427908688085e+05
3.510461071024915669e+06
3.236038658881229162e+07
3.064434941827402115e+08
9.843352813230316078e-01
1.978540978444556453e+00
6.004790119014140615e+00
2.418445179089175667e+01
1.198562860421502307e+02
6.929135581975859850e+02
4.484756724583304276e+03
3.148956165792682805e+04
2.343528408322960895e+05
1.818239924250752199e+06
1.453722244996568002e+07
1.188166028432791680e+08
1.007255750735901456e+00
1.985260471904044088e+00
5.768637033959088889e+00
2.205153508347815361e+01
1.043693366356977918e+02
5.869961403965900217e+02
3.788259569285418365e+03
2.717804695786955563e+04
2.109540154563477263e+05
1.733952277340661967e+06
1.485368196210438013e+07
1.310954133997395784e+08
1.011085287895671536e+00
2.091583457575776350e+00
6.752725250212272101e+00
3.072120140326219229e+01
1.865097176439293492e+02
1.431538688494736562e+03
1.301103867976675247e+04
1.316882134740904439e+05
1.419895627850837074e+06
1.587277050386486016e+07
1.811605109941096306e+08
2.093161892871032953e+09
1.017894323266441692e+00
2.066634526949213679e+00
6.263430520289029246e+00
2.529677890651745642e+01
1.276469199098241916e+02
7.638848392943286854e+02
5.171335693643698505e+03
3.808703944897626934e+04
2.966420968666161061e+05
2.397856517328537069e+06
1.988043965888266638e+07
1.678305175506125689e+08
1.002094112520314884e+00
1.978439938078459859e+00
5.725033182342457394e+00
2.153261943017820101e+01
9.842870265692727116e+01
5.212867163698807644e+02
3.080803264028199919e+03
1.973596593857845437e+04
1.341107046203423524e+05
9.516858129291925579e+05
6.974521544704997912e+06
5.237001359966108203e+07
1.010183408327067545e+00
2.039332770013271290e+00
6.123545906220792645e+00
2.404846235212446715e+01
1.150770689915364784e+02
6.413768834013200149e+02
4.024626985646120374e+03
2.764552974626409195e+04
2.031145714465628553e+05
1.567347841367345303e+06
1.253148700573941693e+07
1.028072136628958881e+08
1.006666897225370061e+00
1.996334002656990236e+00
5.889422605616543294e+00
2.293578271769237986e+01
1.089659945237782921e+02
5.941002197906877882e+02
3.553835186015092859e+03
2.262843003252543349e+04
1.504283355512226990e+05
1.031375496640073019e+06
7.236070147673339583e+06
5.167883497182559222e+07
9.862578528847809611e-01
1.918131362676350093e+00
5.543256279822454502e+00
2.087811007027536547e+01
9.461321563501265075e+01
4.895716409548510910e+02
2.790538231141599681e+03
1.708028962665674044e+04
1.102244798090257827e+05
7.401533502080609323e+05
5.123178767574471422e+06
3.630844269836904854e+07
9.949967688941019350e-01
1.980718461163153421e+00
5.814457306348662868e+00
2.196792232529678301e+01
9.860003171205461570e+01
4.993752197898431859e+02
2.759240223471203990e+03
1.626354930795917426e+04
1.007030815618938650e+05
6.479823067957196617e+05
4.298682002202711068e+06
2.922626570239876583e+07
1.029306303265530076e+00
2.105610731579985462e+00
6.393493123550411994e+00
2.539260258392662095e+01
1.224406655239594954e+02
6.822970352131005711e+02
4.241926267554908009e+03
2.864917899934102388e+04
2.058909454245340603e+05
1.549681074556392385e+06
1.207148622510290332e+07
9.647370627081060410e+07
