# number_particles=1
# length=14
# keep in mind that the imaginary part is discarded.
2.000000000000000000e+00
8.000000000000000000e+00
1.600000000000000000e+01
3.200000000000000000e+01
4.800000000000000000e+01
6.400000000000000000e+01
8.000000000000000000e+01
1.120000000000000000e+02
1.440000000000000000e+02
1.760000000000000000e+02
2.080000000000000000e+02
2.560000000000000000e+02
3.200000000000000000e+02
5.120000000000000000e+02
9.801002144813537598e-01
9.227441549301147461e-01
8.514571785926818848e-01
7.249799966812133789e-01
6.172906756401062012e-01
5.255963206291198730e-01
4.475230872631072998e-01
3.244455754756927490e-01
2.352166473865509033e-01
1.705276072025299072e-01
1.236290559172630310e-01
7.631500065326690674e-02
4.011093080043792725e-02
5.823974497616291046e-03
