# Order: depth_list, dim_list, N_list, design_list 
# depthlen : 14
# dimlen : 1
# Nlen : 1
# designlen : 3
2.000000000000000000e+00
4.000000000000000000e+00
6.000000000000000000e+00
8.000000000000000000e+00
1.000000000000000000e+01
1.200000000000000000e+01
1.400000000000000000e+01
1.600000000000000000e+01
1.800000000000000000e+01
2.000000000000000000e+01
3.000000000000000000e+01
4.000000000000000000e+01
8.000000000000000000e+01
1.200000000000000000e+02
9.000000000000000000e+00
1.312200000000000000e+04
1.000000000000000000e+00
2.000000000000000000e+00
3.000000000000000000e+00
1.069962188307342910e+00
2.333961958071928411e+00
7.930213565508854145e+00
1.020618296144065740e+00
2.077860786321597875e+00
6.272376267805570116e+00
1.002299825421625101e+00
1.964204849806252762e+00
5.661361557129497513e+00
9.872548067399589122e-01
1.932113936561615564e+00
5.605143942038933069e+00
9.884998141000460592e-01
1.919952692790654059e+00
5.515344063344462811e+00
