# Order: depth_list, dim_list, N_list, design_list 
# depthlen : 14
# dimlen : 1
# Nlen : 1
# designlen : 12
2.000000000000000000e+00
4.000000000000000000e+00
6.000000000000000000e+00
8.000000000000000000e+00
1.000000000000000000e+01
1.200000000000000000e+01
1.400000000000000000e+01
1.600000000000000000e+01
1.800000000000000000e+01
2.000000000000000000e+01
3.000000000000000000e+01
4.000000000000000000e+01
8.000000000000000000e+01
1.200000000000000000e+02
9.000000000000000000e+00
1.312200000000000000e+04
1.000000000000000000e+00
2.000000000000000000e+00
3.000000000000000000e+00
4.000000000000000000e+00
5.000000000000000000e+00
6.000000000000000000e+00
7.000000000000000000e+00
8.000000000000000000e+00
9.000000000000000000e+00
1.000000000000000000e+01
1.100000000000000000e+01
1.200000000000000000e+01
1.542235517394482391e+00
4.799913026795659121e+00
2.228712076382316454e+01
1.358256906771605941e+02
1.010144118439925933e+03
8.735115742142299496e+03
8.479245167423757084e+04
8.994472608818266308e+05
1.021173011710148305e+07
1.221264911970925927e+08
1.520083449686519623e+09
1.951310582466433334e+10
1.153694916091301703e+00
2.642786807518322068e+00
9.010924437030789491e+00
4.087003472951479210e+01
2.327515790369334638e+02
1.601236548537046929e+03
1.284616045938825300e+04
1.159917474346868548e+05
1.140970574933929369e+06
1.191021000020772591e+07
1.294357726731933951e+08
1.445372429318428993e+09
1.051466589163505994e+00
2.189680046831579130e+00
6.673510107206594100e+00
2.621177385681038174e+01
1.231481823455284115e+02
6.573708137885878386e+02
3.841730756671887775e+03
2.393916467641338750e+04
1.561758930100729922e+05
1.053548349885146366e+06
7.288040336844438687e+06
5.141002448559958488e+07
1.007069962107201011e+00
2.038917525233497230e+00
6.267821287121667417e+00
2.625588025404966075e+01
1.403182867844069790e+02
9.002846316487866716e+02
6.550505261579876787e+03
5.167661337155574438e+04
4.287896696159265121e+05
3.672433087050091010e+06
3.210202785133149102e+07
2.844806795202677846e+08
1.011253923825035983e+00
2.072577864089992339e+00
6.519142566072600786e+00
2.779914558775855937e+01
1.482022286866899492e+02
9.282196926317292309e+02
6.514182505354247041e+03
4.953045968009623903e+04
3.989166853668206604e+05
3.353137859739924781e+06
2.912704979585991427e+07
2.596878518754667342e+08
1.023902166564225169e+00
2.049905375175170796e+00
6.099248036831965258e+00
2.394971954522237922e+01
1.152845614443600653e+02
6.455360414246433720e+02
4.043722794856666496e+03
2.751604144554767845e+04
1.989864175514593953e+05
1.504948612588722957e+06
1.176616033585322462e+07
9.430494593799799681e+07
1.014052334823059454e+00
2.056707121806588656e+00
6.182247996597576289e+00
2.412249927999306465e+01
1.136213701341753790e+02
6.168121163804190701e+02
3.733789085734055789e+03
2.458792040426445601e+04
1.728657361147476477e+05
1.278837466131195892e+06
9.842867144371440634e+06
7.811974295255464315e+07
1.011817664998007960e+00
2.072545425094473259e+00
6.521801571671540287e+00
2.812993112183229272e+01
1.541443007536456946e+02
1.006110270898694921e+03
7.409002548408258008e+03
5.909200787325133570e+04
4.964774030836662278e+05
4.316994600545380265e+06
3.842301007801556587e+07
3.476556925600250959e+08
9.933607443070054943e-01
1.996611876025392140e+00
6.094915296758504297e+00
2.525932874017275864e+01
1.326683454685432366e+02
8.344010668426216171e+02
5.990453336948937249e+03
4.728140008739909536e+04
3.990286697176996386e+05
3.530360833603808656e+06
3.229628723492063209e+07
3.026030570749603510e+08
1.016929976318365014e+00
2.080976990245538616e+00
6.377870323628663130e+00
2.562785879092110619e+01
1.246718309040039259e+02
6.965639695314177970e+02
4.306273120108536204e+03
2.866086571244565857e+04
2.012494912956315966e+05
1.469047158785947133e+06
1.103079359407969750e+07
8.456738023176528513e+07
9.956915034531845787e-01
1.973740251629236608e+00
5.869913426511057963e+00
2.300844350863498278e+01
1.094363252254652963e+02
5.964624126741967984e+02
3.581756567035368334e+03
2.307510735133297567e+04
1.566207126433585654e+05
1.105973740506127244e+06
8.052821185500093736e+06
6.006751439564938843e+07
1.015525985410889565e+00
2.071691844954541395e+00
6.262463681645521696e+00
2.465174348592165998e+01
1.178108577982175404e+02
6.556405907499220120e+02
4.133841871188826190e+03
2.889852006488990446e+04
2.196485624622563191e+05
1.782387123549203854e+06
1.519576470925778709e+07
1.343288428864718676e+08
1.001397214764169208e+00
2.010570271542565735e+00
6.145773839322462351e+00
2.580441533283778455e+01
1.408876487521509091e+02
9.555220713764313132e+02
7.665641811157432130e+03
6.934121624543107464e+04
6.798722353898326401e+05
7.023318861240066588e+06
7.502282135905654728e+07
8.188437225782806873e+08
9.952105124073071796e-01
1.982523386460723458e+00
5.957913881105164400e+00
2.448192879594751048e+01
1.300502278883936924e+02
8.434154882927782637e+02
6.293404566122198958e+03
5.145200891512411908e+04
4.456941718990540830e+05
4.006436508110427298e+06
3.690951630199434608e+07
3.458472257246370316e+08
