# Order: depth_list, dim_list, N_list, design_list 
# depthlen : 14
# dimlen : 1
# Nlen : 1
# designlen : 3
2.000000000000000000e+00
4.000000000000000000e+00
6.000000000000000000e+00
8.000000000000000000e+00
1.000000000000000000e+01
1.200000000000000000e+01
1.400000000000000000e+01
1.600000000000000000e+01
1.800000000000000000e+01
2.000000000000000000e+01
3.000000000000000000e+01
4.000000000000000000e+01
8.000000000000000000e+01
1.200000000000000000e+02
9.000000000000000000e+00
1.312200000000000000e+04
1.000000000000000000e+00
2.000000000000000000e+00
3.000000000000000000e+00
1.062890056992977117e+00
2.225415255856846297e+00
6.880587101496097091e+00
1.005313907684071806e+00
2.024871175428959447e+00
6.055651207468832453e+00
9.960440354980866218e-01
2.003039349765312060e+00
6.053150792607926434e+00
1.025350549262672883e+00
2.078213510938530906e+00
6.157664485371922680e+00
9.844282988679317059e-01
1.967805726644990427e+00
5.951574110394787454e+00
1.003028753095569492e+00
1.977466149968170939e+00
5.719544969500783616e+00
9.998167006865182893e-01
1.969999087643738989e+00
5.699625441432496942e+00
9.965136526260215399e-01
1.963247189692803651e+00
5.850716707025514829e+00
9.886705718978255897e-01
1.940434742846669058e+00
5.717866400801995930e+00
1.023779497306385622e+00
2.096683441469771925e+00
6.443871449722221811e+00
9.996091962315137858e-01
2.016904120907804909e+00
6.269012170788763605e+00
1.014305889366359903e+00
2.073098508627816194e+00
6.427488064571518223e+00
1.000496321579632752e+00
1.970791344060372596e+00
5.713874573681241742e+00
1.002091562790670132e+00
2.032830378607317634e+00
6.262270184657009686e+00
