# Order: depth_list, dim_list, N_list, design_list 
# depthlen : 14
# dimlen : 1
# Nlen : 1
# designlen : 3
2.000000000000000000e+00
4.000000000000000000e+00
6.000000000000000000e+00
8.000000000000000000e+00
1.000000000000000000e+01
1.200000000000000000e+01
1.400000000000000000e+01
1.600000000000000000e+01
1.800000000000000000e+01
2.000000000000000000e+01
3.000000000000000000e+01
4.000000000000000000e+01
8.000000000000000000e+01
1.000000000000000000e+02
4.000000000000000000e+00
1.312200000000000000e+04
1.000000000000000000e+00
2.000000000000000000e+00
3.000000000000000000e+00
1.102947488989845404e+00
2.552335781876515330e+00
1.005760548148831646e+01
1.003530236799634601e+00
2.017712126887137636e+00
6.088256128128760380e+00
1.012901733116146286e+00
2.049606493412802433e+00
6.105883381012488620e+00
9.983634118659320267e-01
1.997654352668096989e+00
5.886684232581148812e+00
9.899967303178556222e-01
1.955247650018744565e+00
5.737626614801462743e+00
1.013400396123983471e+00
2.051053610738126309e+00
6.279081200165022025e+00
9.890258494396515498e-01
1.964005118052514653e+00
5.951056310632194091e+00
1.002304102547920239e+00
2.049523193809189792e+00
6.643685829259410092e+00
9.968003249518164743e-01
1.984212493314192693e+00
6.029427621796524583e+00
9.968802118732565942e-01
1.994629540449806671e+00
6.090896564205042552e+00
1.025181337047536001e+00
2.081403468847805804e+00
6.268089342857241952e+00
1.024101335060064955e+00
2.058817350567698767e+00
6.132812913733109106e+00
9.715533925097880052e-01
1.863370807131319085e+00
5.217676084813437143e+00
1.007035754549223228e+00
1.995299535579803329e+00
5.809064602744370198e+00
