# Order: depth_list, dim_list, N_list, design_list 
# depthlen : 1
# dimlen : 1
# Nlen : 1
# designlen : 3
2.000000000000000000e+01
9.000000000000000000e+00
1.312200000000000000e+04
1.000000000000000000e+00
2.000000000000000000e+00
3.000000000000000000e+00
1.003192373402185256e+00
2.010281943917807457e+00
6.026739391643786803e+00
