# number_particles=2
# length=10
# keep in mind that the imaginary part is discarded.
2.000000000000000000e+00
4.000000000000000000e+00
8.000000000000000000e+00
1.600000000000000000e+01
2.400000000000000000e+01
3.200000000000000000e+01
6.400000000000000000e+01
1.280000000000000000e+02
2.560000000000000000e+02
5.120000000000000000e+02
1.015213370323181152e+00
1.030522823333740234e+00
1.062747716903686523e+00
1.090246796607971191e+00
1.097614884376525879e+00
1.150965571403503418e+00
1.169685721397399902e+00
1.149956822395324707e+00
1.145746827125549316e+00
