# Order: depth_list, dim_list, N_list, design_list 
# depthlen : 15
# dimlen : 1
# Nlen : 1
# designlen : 6
2.000000000000000000e+00
4.000000000000000000e+00
6.000000000000000000e+00
8.000000000000000000e+00
1.000000000000000000e+01
1.200000000000000000e+01
1.400000000000000000e+01
1.600000000000000000e+01
1.800000000000000000e+01
2.000000000000000000e+01
3.000000000000000000e+01
4.000000000000000000e+01
5.000000000000000000e+01
1.000000000000000000e+02
1.500000000000000000e+02
9.000000000000000000e+00
1.312200000000000000e+04
1.000000000000000000e+00
2.000000000000000000e+00
3.000000000000000000e+00
4.000000000000000000e+00
5.000000000000000000e+00
6.000000000000000000e+00
2.454402232705048092e+00
1.433883033406928398e+01
1.629291480417834350e+02
3.147405703153312061e+03
8.486706441303125757e+04
2.722327248082482256e+06
1.454641334873046699e+00
4.300308744624817159e+00
1.897567819989118476e+01
1.087794828785866912e+02
7.445368273923733113e+02
5.751731412670454120e+03
1.222484981340954402e+00
2.944603826161820592e+00
1.039669099302459543e+01
4.706453321418884883e+01
2.531080838440858543e+02
1.542566466388781919e+03
1.138373905940288866e+00
2.599069926462026281e+00
8.877893236753864770e+00
4.011344082885144502e+01
2.235391932562042712e+02
1.464301494605749212e+03
1.065561727852632368e+00
2.250569336187332681e+00
6.979323302351686742e+00
2.803465489754927731e+01
1.351833398144148646e+02
7.413764266287201963e+02
1.021546113649829390e+00
2.063604390137445233e+00
6.061965655027065303e+00
2.258018033819886128e+01
9.858982892317253288e+01
4.812868975279162669e+02
1.038841324639793395e+00
2.196808048847063155e+00
6.986772735567542192e+00
2.928090303580052378e+01
1.492253605884428111e+02
8.744513730749849856e+02
1.006598556256297572e+00
1.983492660246355621e+00
5.679361409010075690e+00
2.091348299261637678e+01
9.228673892013095781e+01
4.648408262729432749e+02
1.016211300424375574e+00
2.058529818909324849e+00
6.135096242521639986e+00
2.346837839121767644e+01
1.065477655184887595e+02
5.470703732899808074e+02
1.030343630665857324e+00
2.087745263411711516e+00
6.226230292928089938e+00
2.455454715637190688e+01
1.213168063894054569e+02
7.208963014276079093e+02
1.023454140547723989e+00
2.135536165180661694e+00
6.846919613299378149e+00
3.015734691315534377e+01
1.693259747763468965e+02
1.135930098181358062e+03
1.002922530281935787e+00
2.059260263118732226e+00
6.407986540289812183e+00
2.625155075189780618e+01
1.295001924565007982e+02
7.247595696933583440e+02
1.000082101089427411e+00
1.998500962660627822e+00
5.970400986560116863e+00
2.383978902078306206e+01
1.214929878167935868e+02
7.725013634907074902e+02
1.017890576020579640e+00
2.101088809807055036e+00
6.730778365828466114e+00
2.926649995169434959e+01
1.573398407648231512e+02
9.789260917489831400e+02
1.011480263015420045e+00
2.024720780618995963e+00
6.088204454841037006e+00
2.453931391364302428e+01
1.238848099986850286e+02
7.402503395343755983e+02
