# Order: depth_list, dim_list, N_list, design_list 
# depthlen : 14
# dimlen : 1
# Nlen : 1
# designlen : 12
2.000000000000000000e+00
4.000000000000000000e+00
6.000000000000000000e+00
8.000000000000000000e+00
1.000000000000000000e+01
1.200000000000000000e+01
1.400000000000000000e+01
1.600000000000000000e+01
1.800000000000000000e+01
2.000000000000000000e+01
3.000000000000000000e+01
4.000000000000000000e+01
8.000000000000000000e+01
1.200000000000000000e+02
9.000000000000000000e+00
1.312200000000000000e+04
1.000000000000000000e+00
2.000000000000000000e+00
3.000000000000000000e+00
4.000000000000000000e+00
5.000000000000000000e+00
6.000000000000000000e+00
7.000000000000000000e+00
8.000000000000000000e+00
9.000000000000000000e+00
1.000000000000000000e+01
1.100000000000000000e+01
1.200000000000000000e+01
1.066992574745282196e+00
2.328556621868187015e+00
7.720567125915945184e+00
3.425963185891973950e+01
1.894566838460491454e+02
1.241736238722361804e+03
9.247623516918716632e+03
7.547627052889169136e+04
6.560225241140405415e+05
5.947469480405224487e+06
5.545379823359397799e+07
5.268889456944613457e+08
1.008347693151388835e+00
2.021949412400599666e+00
6.015602091742310975e+00
2.382648932859168411e+01
1.184077070282623509e+02
7.046937125360675509e+02
4.808766402162875238e+03
3.619158424186553020e+04
2.912561538742320263e+05
2.450968974884650670e+06
2.124431118540285155e+07
1.878070667971299589e+08
9.959073808043897857e-01
1.927390641459582055e+00
5.412176476821587201e+00
1.951086932652533790e+01
8.436849358645636698e+01
4.186085638242115579e+02
2.306750623992794772e+03
1.376550354111892375e+04
8.723239396184195357e+04
5.783423543692883104e+05
3.967155237259516958e+06
2.792477067091716453e+07
1.003804525867603825e+00
2.013668163394137789e+00
6.040138765215396610e+00
2.386385913122627755e+01
1.150485919095990823e+02
6.419005520637687141e+02
3.988048359799693571e+03
2.682434099617854372e+04
1.913969537582779885e+05
1.427733155857482692e+06
1.101875937010381930e+07
8.732165508147174120e+07
1.007550176859175695e+00
2.033874573491885496e+00
6.108488091417321186e+00
2.430437623718132656e+01
1.206252681276478427e+02
7.149262408190900260e+02
4.862296289811443785e+03
3.659097532955682982e+04
2.956947208653823473e+05
2.509270631514969282e+06
2.201494483155969530e+07
1.976032677726802230e+08
1.008932691091823708e+00
2.020165678418956112e+00
6.000184170045372412e+00
2.318304476124643543e+01
1.076640519319455791e+02
5.694283460146840525e+02
3.301414022779524203e+03
2.042671822686263840e+04
1.323884849236871232e+05
8.873290562074638437e+05
6.096175950611182489e+06
4.266705101547401398e+07
9.923959695538474568e-01
1.923501516649209098e+00
5.508979119892273069e+00
2.095858461470881906e+01
1.009450679016670875e+02
5.977128510146931148e+02
4.200467002121064979e+03
3.350714506781307136e+04
2.906877269842710230e+05
2.655531717817679979e+06
2.501692881803327426e+07
2.400180445964519083e+08
9.934800167890484035e-01
2.002860738385709993e+00
6.106001528711388460e+00
2.459100090777297964e+01
1.207472359663235721e+02
6.841287758627325957e+02
4.296458847772601985e+03
2.904953759323670238e+04
2.071359565005087934e+05
1.535331442031011684e+06
1.171172175027858466e+07
9.129517467304056883e+07
9.975340800925948104e-01
1.988468907799652019e+00
6.034404360029708592e+00
2.544547539976732509e+01
1.434718902910488225e+02
1.035367196806283118e+03
8.953913111884499813e+03
8.679320266432850622e+04
8.981061972832753090e+05
9.633698348882943392e+06
1.054069025500675291e+08
1.166289277161557913e+09
1.016774127960991647e+00
2.097465132636957552e+00
6.632446264481944631e+00
2.864109578632167086e+01
1.571870759485170765e+02
1.035151504951111974e+03
7.779305120223176345e+03
6.401270216198384151e+04
5.592997043968400685e+05
5.081306258010867052e+06
4.735380917995993793e+07
4.487858726861773133e+08
1.007730601925272529e+00
2.050750334250699414e+00
6.178490203646804346e+00
2.389366381718522092e+01
1.093426026708586392e+02
5.633279957648029495e+02
3.164706421206015420e+03
1.897558334411460964e+04
1.196133579581308586e+05
7.838968503144303104e+05
5.296403025642984547e+06
3.665552882611771673e+07
9.853103457188162606e-01
1.902351820506670510e+00
5.368043185102757242e+00
1.963347255740435671e+01
8.661919156955859478e+01
4.386521831593817637e+02
2.462059658908488927e+03
1.494929199851489648e+04
9.658399720365981921e+04
6.563722712527537951e+05
4.652087852392692119e+06
3.415210337770166248e+07
1.032750456882505885e+00
2.140378511075930135e+00
6.631614727713038171e+00
2.711321806034294468e+01
1.359198822421953707e+02
7.945427773366399151e+02
5.220749651212144272e+03
3.751849329399267299e+04
2.889141622468815767e+05
2.347483467870581429e+06
1.988913960988331214e+07
1.741083389712622464e+08
9.901837775998179048e-01
1.965952627522904006e+00
5.923589646372112938e+00
2.427071299790146597e+01
1.273021446363049733e+02
8.151116939268031274e+02
6.082554426517367574e+03
5.067229616940327105e+04
4.552369545767794480e+05
4.302376796684226952e+06
4.206900795969156176e+07
4.210120503227350712e+08
