# Order: depth_list, dim_list, N_list, design_list 
# depthlen : 14
# dimlen : 1
# Nlen : 1
# designlen : 3
2.000000000000000000e+00
4.000000000000000000e+00
6.000000000000000000e+00
8.000000000000000000e+00
1.000000000000000000e+01
1.200000000000000000e+01
1.400000000000000000e+01
1.600000000000000000e+01
1.800000000000000000e+01
2.000000000000000000e+01
3.000000000000000000e+01
4.000000000000000000e+01
8.000000000000000000e+01
1.000000000000000000e+02
4.000000000000000000e+00
1.312200000000000000e+04
1.000000000000000000e+00
2.000000000000000000e+00
3.000000000000000000e+00
1.110901415143066950e+00
2.613140553581916770e+00
1.068713058264561688e+01
1.000018929523841749e+00
1.997663035163633749e+00
5.939988935372854328e+00
1.018104178027808837e+00
2.057816471065859076e+00
6.158673992291609167e+00
1.021932425261274258e+00
2.095825597756294290e+00
6.526841889294424881e+00
9.903812148603816645e-01
1.978233735497745061e+00
5.853804465407408841e+00
9.934161489488438912e-01
1.990597697322520343e+00
5.963633734841442546e+00
1.005041967914318768e+00
2.045895036987499971e+00
6.275928700001117910e+00
1.004581383212646895e+00
1.991183079591349436e+00
5.816140224966769523e+00
1.004751720062801112e+00
2.015762881790226668e+00
5.927957143440672816e+00
1.026914326732548455e+00
2.111833513062160161e+00
6.564397602815982502e+00
9.987281450328026056e-01
1.987933478263447018e+00
5.967538712029113235e+00
1.016924851423124609e+00
2.096594098085426516e+00
6.614426029666389262e+00
1.024057870428935146e+00
2.088751414514586457e+00
6.566994171534071612e+00
9.959908338841167996e-01
1.962018251196155472e+00
5.684990685841230906e+00
