# Order: depth_list, dim_list, N_list, design_list 
# depthlen : 14
# dimlen : 1
# Nlen : 20
# designlen : 12
2.000000000000000000e+00
4.000000000000000000e+00
6.000000000000000000e+00
8.000000000000000000e+00
1.000000000000000000e+01
1.200000000000000000e+01
1.400000000000000000e+01
1.600000000000000000e+01
1.800000000000000000e+01
2.000000000000000000e+01
3.000000000000000000e+01
4.000000000000000000e+01
8.000000000000000000e+01
1.200000000000000000e+02
9.000000000000000000e+00
1.312200000000000000e+04
1.312200000000000000e+04
1.312200000000000000e+04
1.312200000000000000e+04
1.312200000000000000e+04
1.312200000000000000e+04
1.312200000000000000e+04
1.312200000000000000e+04
1.312200000000000000e+04
1.312200000000000000e+04
1.312200000000000000e+04
1.312200000000000000e+04
1.312200000000000000e+04
1.312200000000000000e+04
1.312200000000000000e+04
1.312200000000000000e+04
1.312200000000000000e+04
1.312200000000000000e+04
1.312200000000000000e+04
1.312200000000000000e+04
1.000000000000000000e+00
2.000000000000000000e+00
3.000000000000000000e+00
4.000000000000000000e+00
5.000000000000000000e+00
6.000000000000000000e+00
7.000000000000000000e+00
8.000000000000000000e+00
9.000000000000000000e+00
1.000000000000000000e+01
1.100000000000000000e+01
1.200000000000000000e+01
1.538410326873172806e+00
4.821472731149847313e+00
2.308604335394684526e+01
1.494521190482469137e+02
1.217061857701890176e+03
1.183648514899551083e+04
1.317982408258904470e+05
1.622045050032918807e+06
2.144875655097887665e+07
2.983166347818996310e+08
4.298186534422403336e+09
6.348458806230003357e+10
1.544907922596014727e+00
4.900552964834346881e+00
2.389100994758540253e+01
1.593327565012579896e+02
1.346550617725184793e+03
1.349596821003197510e+04
1.518747019866511982e+05
1.844506408178598154e+06
2.355422646960781887e+07
3.110917979499343634e+08
4.205479147502840996e+09
5.780140209306539917e+10
1.558835561353029364e+00
4.998526059396985133e+00
2.486434074623204182e+01
1.692172636993245192e+02
1.443999799781372303e+03
1.445380239765094848e+04
1.617256412598312309e+05
1.958021760525285732e+06
2.510857361097810045e+07
3.362498727328277230e+08
4.657357995210663795e+09
6.625729348970481110e+10
1.488814762012738990e+00
4.441848763928690325e+00
1.981230735936776455e+01
1.190432951610130488e+02
9.143781566680039532e+02
8.593115864069046438e+03
9.423294148228361155e+04
1.151933138690530555e+06
1.513130090533208847e+07
2.081428650079443753e+08
2.948545415561028004e+09
4.256320505164943695e+10
1.522306599839952757e+00
4.762679154192693609e+00
2.306953559292854905e+01
1.505783270234489066e+02
1.209620159109121232e+03
1.124330596175347637e+04
1.159901640586803842e+05
1.291280278024614090e+06
1.521645915703647025e+07
1.872551249515757561e+08
2.383364902199178219e+09
3.115523094348785782e+10
1.495435323978400399e+00
4.532439819436997475e+00
2.093929600887510745e+01
1.299625622717996123e+02
1.001075588082751551e+03
9.020577587242620211e+03
9.086095243847576785e+04
9.893245126525671221e+05
1.137426934966624714e+07
1.359024979912546873e+08
1.669672378319002151e+09
2.094247054122698593e+10
1.555125223216567987e+00
4.931065512399814388e+00
2.375760740121808112e+01
1.519311927475525295e+02
1.186170431358309997e+03
1.068530222766426050e+04
1.067987577487529488e+05
1.152172478445450542e+06
1.315529061144083925e+07
1.567283043229856789e+08
1.928239447564285755e+09
2.431276826179719543e+10
1.541844271301609837e+00
4.740773574868788920e+00
2.136687471039517661e+01
1.239593138340302403e+02
8.659459971417240922e+02
7.010118293647171413e+03
6.403904341054965334e+04
6.454381364492515568e+05
7.029175306815097108e+06
8.118422364886546135e+07
9.789584047492561340e+08
1.217526057800853920e+10
1.515502451275682505e+00
4.596782578562156552e+00
2.072065907278886954e+01
1.232738837039590294e+02
9.156572432958660102e+02
8.246892049229651093e+03
8.775601097671480966e+04
1.067389317498527700e+06
1.430480049717660062e+07
2.045333451033211648e+08
3.047222218834551334e+09
4.657422080548643494e+10
1.547442330953819001e+00
4.856849740046344621e+00
2.275381466602290104e+01
1.387190576067121981e+02
1.012404222313618448e+03
8.368794458802423833e+03
7.547695331122221251e+04
7.241178594669618178e+05
7.264219050820848905e+06
7.531156381142993271e+07
8.004072980516284704e+08
8.671045793941656113e+09
1.546777550468562801e+00
4.869814495326037829e+00
2.288389519001602324e+01
1.405336957232928228e+02
1.046693937115828930e+03
9.004893281992361153e+03
8.636524473918118747e+04
8.985666103135271696e+05
9.932079588349165395e+06
1.148334741765263826e+08
1.373306626996560335e+09
1.685286396918592262e+10
1.501694017648228074e+00
4.578299966635804630e+00
2.096531044895876406e+01
1.258226602989606420e+02
9.088164529951556005e+02
7.455697656426178582e+03
6.680874325046743616e+04
6.371526106817205437e+05
6.356314234967880882e+06
6.555726017555402219e+07
6.933477498090001345e+08
7.476244089036507607e+09
1.538392737979688230e+00
4.822490378452236826e+00
2.271682321805877081e+01
1.417615092696032946e+02
1.099414880247981955e+03
1.017812380356057656e+04
1.087241887442477309e+05
1.297314056363651296e+06
1.679192564123570547e+07
2.302311367234638631e+08
3.285281106609211922e+09
4.819059201065758514e+10
1.542235517394482391e+00
4.799913026795659121e+00
2.228712076382316454e+01
1.358256906771605941e+02
1.010144118439925933e+03
8.735115742142299496e+03
8.479245167423757084e+04
8.994472608818266308e+05
1.021173011710148305e+07
1.221264911970925927e+08
1.520083449686519623e+09
1.951310582466433334e+10
1.535336145318309420e+00
4.722208008873352014e+00
2.150359517383873609e+01
1.282509927987807146e+02
9.345559615956544803e+02
7.929656470354088015e+03
7.552653563585504889e+04
7.848689531639824854e+05
8.707312076978579164e+06
1.014432437120603323e+08
1.226020160795563698e+09
1.523273785792979622e+10
1.541329341106008721e+00
4.783531974370723638e+00
2.277089948115346019e+01
1.495559150593677202e+02
1.266285445383513206e+03
1.302870376829284396e+04
1.544135837025564397e+05
2.017275856132977176e+06
2.811958591519071162e+07
4.090248757333341837e+08
6.118651790126726151e+09
9.325031506062492371e+10
1.541060238404150295e+00
4.746960351862484551e+00
2.184533260314828240e+01
1.331243399708393156e+02
9.995457999089703662e+02
8.761729045744354153e+03
8.594948483183047210e+04
9.140528607509910362e+05
1.030306933063725755e+07
1.211905079173229486e+08
1.471775828764760256e+09
1.831740174217637253e+10
1.532650044039958415e+00
4.775442383263844626e+00
2.303380345811623542e+01
1.550104433732403209e+02
1.370361839238029916e+03
1.502992381046234368e+04
1.926395134439037647e+05
2.737064405454957858e+06
4.147324980130976439e+07
6.536144619114503860e+08
1.055278490687225914e+10
1.729907392018547974e+11
1.531151827135924792e+00
4.729629394536278397e+00
2.217312766092733867e+01
1.406399050488994931e+02
1.123183962107850448e+03
1.067336239502794160e+04
1.152923823027005128e+05
1.366134936274793465e+06
1.729124407810462639e+07
2.293115132158356309e+08
3.143118228453874111e+09
4.410527332503872681e+10
1.572026247081865780e+00
5.198826213823735998e+00
2.980337318341431896e+01
3.114680459936049033e+02
5.663201728293258384e+03
1.408526613240794977e+05
3.974114790887146257e+06
1.174879022946938872e+08
3.536532043963294029e+09
1.072502254228493500e+11
3.263148839594300781e+12
9.943174885576962500e+13
1.171434664770801382e+00
2.695631195832702165e+00
9.075577278150179339e+00
3.946146754583487848e+01
2.062529529323959991e+02
1.237482953915613962e+03
8.262466651068787542e+03
6.006954622315936285e+04
4.679134294361223583e+05
3.855853933069972321e+06
3.326228757154355571e+07
2.977130941539574862e+08
1.158263074191261621e+00
2.709390754684548597e+00
9.559907423757794120e+00
4.545100382896417557e+01
2.723871513954885586e+02
1.944090467067717782e+03
1.570012041215149293e+04
1.377394798938811582e+05
1.275728053197182249e+06
1.224369077671931684e+07
1.203433538044185787e+08
1.202504930107372999e+09
1.180395414906786566e+00
2.794693552755997512e+00
1.001393057661831421e+01
4.853559255712982434e+01
2.970447563065828831e+02
2.163171067970657077e+03
1.778800507710803504e+04
1.586070059076790640e+05
1.491098946624601493e+06
1.451362166613643989e+07
1.445782847554359436e+08
1.463114867382623672e+09
1.149945270419273413e+00
2.648030174867024744e+00
9.197311206658406846e+00
4.285838561917447720e+01
2.501641024331492815e+02
1.738976132251147192e+03
1.379099103551285225e+04
1.202480759288993286e+05
1.119228982432267396e+06
1.088262528938202560e+07
1.089158368920557350e+08
1.111096409361806870e+09
1.175730764849345578e+00
2.815181984561561990e+00
1.040501703555421820e+01
5.374408736062419933e+01
3.698010588246814336e+02
3.219345812519988158e+03
3.320811330119476042e+04
3.819642499057859532e+05
4.693294604007665999e+06
6.001918013579597324e+07
7.869667390606188774e+08
1.048902081460848045e+10
1.170310101431881300e+00
2.705378777224521691e+00
9.405764862425966655e+00
4.389881488409805854e+01
2.545731954190010242e+02
1.724470087652813618e+03
1.300904671132663316e+04
1.055973475831918331e+05
9.009474267328560818e+05
7.954973737163498066e+06
7.195002412196858227e+07
6.621126967031898499e+08
1.165945122818861313e+00
2.746651561429224842e+00
9.890460771026891251e+00
4.802670589771318532e+01
2.893656536727041271e+02
2.030108302312453588e+03
1.581956328210077481e+04
1.324968651691045670e+05
1.166933126880649477e+06
1.065252305556064099e+07
9.982740959796851873e+07
9.540832558848897219e+08
1.156254313435517433e+00
2.683693320797288617e+00
9.467180409420183906e+00
4.446892119764569173e+01
2.545073720449140922e+02
1.666207574922139429e+03
1.195512720986058048e+04
9.142998573319935531e+04
7.319842239600319881e+05
6.061680107260994613e+06
5.149719333195322752e+07
4.461952275814425945e+08
1.139385930804748037e+00
2.578061261543182159e+00
8.738993635013244443e+00
3.965119006713979388e+01
2.264628544410667530e+02
1.557701831132076904e+03
1.239841401852042145e+04
1.100048263213429746e+05
1.053911602178607602e+06
1.064216746846819296e+07
1.113616032965595871e+08
1.194051114882689953e+09
1.183039676480208691e+00
2.841462746772647208e+00
1.027115367753897957e+01
4.845436486885533611e+01
2.730077421660906225e+02
1.737221585547559698e+03
1.205770818105297076e+04
8.929690536930666713e+04
6.954202337744078832e+05
5.637560929895943962e+06
4.722025257174080610e+07
4.063114913678908348e+08
1.176287316855913367e+00
2.765952822952894241e+00
9.679690925091843923e+00
4.450889216274804738e+01
2.529462570235306202e+02
1.718270014123894043e+03
1.358129478876242501e+04
1.212676985646988323e+05
1.186127680695168674e+06
1.236811044711892307e+07
1.346578982679804265e+08
1.508743845233272314e+09
1.154194380183005242e+00
2.662665783301577882e+00
9.404496933415057214e+00
4.517508742435034463e+01
2.722493107008925790e+02
1.940990307209174944e+03
1.568696685795336271e+04
1.392560549662367557e+05
1.325812472601896618e+06
1.329343797638905607e+07
1.384540518595898747e+08
1.482687908693685293e+09
1.174965987296444414e+00
2.776622419951416010e+00
9.867567683796069744e+00
4.729672834044666274e+01
2.864577339933444478e+02
2.075807317705225614e+03
1.714894598368732841e+04
1.553413916285964660e+05
1.499380842137892032e+06
1.511836404869495332e+07
1.571269090974591076e+08
1.668155541116416454e+09
1.153694916091301703e+00
2.642786807518322068e+00
9.010924437030789491e+00
4.087003472951479210e+01
2.327515790369334638e+02
1.601236548537046929e+03
1.284616045938825300e+04
1.159917474346868548e+05
1.140970574933929369e+06
1.191021000020772591e+07
1.294357726731933951e+08
1.445372429318428993e+09
1.171745070754000917e+00
2.779248759192789020e+00
1.003813983826553802e+01
4.897355731808444546e+01
3.008150957685928120e+02
2.203413264903012987e+03
1.836073956634489150e+04
1.674090780565655441e+05
1.622204548239505151e+06
1.637268629533560947e+07
1.698431897088040411e+08
1.795352705222559214e+09
1.166064722609642113e+00
2.698714788687164745e+00
9.311172583984212991e+00
4.235549598434081275e+01
2.368203068873976065e+02
1.549557281234623815e+03
1.141433802001628646e+04
9.177122399563439831e+04
7.863797847810065141e+05
7.056485810916284099e+06
6.547654129866234958e+07
6.226330236906435490e+08
1.182275893086124574e+00
2.809118320413556358e+00
1.002925825650953051e+01
4.763840712280897804e+01
2.792224542088434873e+02
1.912687556787986068e+03
1.470805699624075169e+04
1.232504084108176176e+05
1.101031509272316005e+06
1.031509861608904786e+07
1.001121266680937856e+08
9.974015549763627052e+08
1.181755508639769747e+00
2.823753551844675691e+00
1.012685647319015025e+01
4.787012389866769269e+01
2.766256240784485954e+02
1.863531955906696339e+03
1.416238948305576014e+04
1.183766073598911607e+05
1.065642078920234228e+06
1.015347193392576277e+07
1.009719673307288736e+08
1.036733021900721192e+09
1.158693966887921922e+00
2.673229355642960048e+00
9.138974176786225811e+00
4.078231803690153612e+01
2.217155406068518175e+02
1.408104660270332261e+03
1.014206586862494441e+04
8.083250434543381562e+04
6.973574353292253800e+05
6.388359304957902059e+06
6.117157089328589290e+07
6.048763582939925194e+08
1.150727996220882288e+00
2.732216254522930043e+00
9.812826602461486303e+00
4.648512932654156771e+01
2.685018706021975845e+02
1.795061756917590401e+03
1.337954203314704864e+04
1.081701226872894185e+05
9.298002863329334650e+05
8.374612808749716729e+06
7.819412289159739017e+07
7.507902504480322599e+08
1.082454286957619471e+00
2.353565117232001125e+00
7.679371746918604913e+00
3.323425423867104911e+01
1.784384197038704087e+02
1.140976908075991787e+03
8.429724254958984602e+03
7.002262564970186213e+04
6.369698469124279218e+05
6.194929776766058989e+06
6.314898458190015703e+07
6.646130090811624527e+08
1.072598181190545175e+00
2.284989788255840537e+00
7.234201207013683188e+00
3.017514470352124434e+01
1.553203642302359526e+02
9.426189895088516550e+02
6.485655902775776667e+03
4.888385515478596062e+04
3.926747215747947339e+05
3.295162056788957678e+06
2.849611266455869749e+07
2.516886625820592344e+08
1.041925082034218075e+00
2.158226875081332263e+00
6.657251928776948269e+00
2.703469004601986114e+01
1.340938957020433975e+02
7.701054885265149323e+02
4.921088168302254417e+03
3.397774979120527132e+04
2.481651021269420453e+05
1.888596575288127176e+06
1.481620034967348911e+07
1.189099725891776234e+08
1.053408256934039500e+00
2.202729670418745123e+00
6.846604548866924489e+00
2.771711087777510585e+01
1.346336108014774027e+02
7.439310437220033236e+02
4.516762372935953863e+03
2.944106119716838657e+04
2.026632244222602167e+05
1.455342341109542875e+06
1.079985571466602571e+07
8.221176549741087854e+07
1.068954625967400096e+00
2.254906421847393982e+00
7.026215987444066613e+00
2.861781570278930786e+01
1.430934530982850390e+02
8.448819964134808060e+02
5.705446887720902851e+03
4.273957516800126177e+04
3.453426589914472424e+05
2.941383997909700964e+06
2.595971012111322209e+07
2.346057298185744584e+08
1.046816663941416925e+00
2.190426123451842066e+00
6.821016356061377905e+00
2.801737077742432547e+01
1.411511642179821422e+02
8.278744853190470394e+02
5.438712062303957282e+03
3.890492168395213230e+04
2.968371225490302895e+05
2.378998910474545322e+06
1.979881186097915843e+07
1.696151117645655274e+08
1.040247467526096870e+00
2.120518048676840461e+00
6.382705262788480383e+00
2.520300427942103383e+01
1.216932700988980969e+02
6.833793562216980035e+02
4.297894497027143188e+03
2.943919760671712720e+04
2.152180240941027296e+05
1.654716084434661549e+06
1.323475985323728807e+07
1.092027689404365271e+08
1.060970360322101014e+00
2.231197801186848295e+00
6.897794242689388788e+00
2.784389862604098909e+01
1.377640294836964188e+02
8.007139423250232539e+02
5.285029719948136517e+03
3.849298569999696338e+04
3.020816549297394231e+05
2.506400275744475890e+06
2.167113755290834606e+07
1.931759019549164176e+08
1.066732080284593209e+00
2.270586812935522225e+00
7.185242984520224141e+00
2.973116684767651918e+01
1.489545448422844061e+02
8.573007351945318533e+02
5.458805744616935044e+03
3.741851463902241085e+04
2.707106650556652457e+05
2.037846234653430525e+06
1.580050655848194845e+07
1.252751361836140156e+08
1.094135907600223057e+00
2.411144428770501058e+00
8.137534391360222941e+00
3.721893793299013709e+01
2.125530964647797418e+02
1.428604677694153679e+03
1.084291342653246465e+04
9.028224479635363969e+04
8.073070194016485475e+05
7.625989921844046563e+06
7.511152974183750153e+07
7.634972059198869467e+08
1.083008505137349919e+00
2.335147810363115806e+00
7.602711512017502393e+00
3.328203742555653832e+01
1.819250952381278239e+02
1.171371010417040907e+03
8.482537426945484185e+03
6.675979084186791442e+04
5.575213556481308769e+05
4.860313864284457639e+06
4.373902353150282800e+07
4.031891902469756603e+08
1.055031961270737284e+00
2.211498520683558233e+00
6.904399751637120275e+00
2.834667182042599620e+01
1.420824749782222227e+02
8.247039575179820758e+02
5.327120099441071034e+03
3.718038440310085571e+04
2.745077763380885590e+05
2.112190443483269308e+06
1.676195888161265850e+07
1.361974843671829104e+08
1.074255112234179244e+00
2.358187923443983536e+00
7.766851474176011294e+00
3.315167487400913870e+01
1.682149409032794551e+02
9.624160886744543859e+02
6.006783420770091652e+03
4.002183631532045547e+04
2.804099361175452941e+05
2.043411737382277381e+06
1.535963897898655012e+07
1.183329182449180335e+08
1.051466589163505994e+00
2.189680046831579130e+00
6.673510107206594100e+00
2.621177385681038174e+01
1.231481823455284115e+02
6.573708137885878386e+02
3.841730756671887775e+03
2.393916467641338750e+04
1.561758930100729922e+05
1.053548349885146366e+06
7.288040336844438687e+06
5.141002448559958488e+07
1.065474637778883515e+00
2.251671015659816533e+00
7.018898401877269322e+00
2.863515836313876761e+01
1.438367640725520005e+02
8.570266923013257383e+02
5.875586581970481348e+03
4.498981092457782506e+04
3.741164477793700644e+05
3.299974930634354241e+06
3.033137371195861325e+07
2.868691257314497232e+08
1.062113889891954210e+00
2.279245067193964580e+00
7.486540736072057278e+00
3.447762519876385312e+01
2.147047540972898787e+02
1.725595179967657486e+03
1.670420239498456431e+04
1.820853599865857686e+05
2.130079201735030860e+06
2.597180376092243195e+07
3.245971141968731880e+08
4.119030939501853466e+09
1.060734935305761351e+00
2.324799206809370578e+00
7.906593033895048528e+00
3.825547096738507946e+01
2.567526330838280160e+02
2.272078645196790148e+03
2.424268089675214287e+04
2.873413380126790726e+05
3.595201926474872511e+06
4.624519082055035233e+07
6.036906013216434717e+08
7.947290969467508316e+09
1.058527347640373151e+00
2.231799799082625491e+00
6.971917906490074479e+00
2.836456742545742671e+01
1.392166729869089465e+02
7.832898562577960320e+02
4.873503025431814422e+03
3.266419739288766505e+04
2.313154593612560129e+05
1.706108161352508236e+06
1.296823561793778464e+07
1.007997524790650457e+08
1.068101954719475222e+00
2.281277461006181451e+00
7.354450103209148715e+00
3.204747835895695118e+01
1.755609393903746991e+02
1.137051363911519502e+03
8.271623271307225878e+03
6.504147179528119159e+04
5.385226237518675625e+05
4.616041187586000189e+06
4.052398586970559508e+07
3.618688240677334070e+08
1.088830840670028444e+00
2.412497983952294867e+00
8.072893491058021453e+00
3.604794760937939202e+01
2.004952818106416714e+02
1.319726141826252388e+03
9.837617404663438720e+03
8.008801253979149624e+04
6.931203995998747414e+05
6.260155153534125537e+06
5.829248381201350689e+07
5.551849200279043913e+08
1.032405336461829970e+00
2.162199059734912332e+00
6.920990389713097102e+00
3.006689959327002626e+01
1.646866995222376318e+02
1.074188600653514186e+03
7.966413765448348386e+03
6.483401360146344814e+04
5.644002109908367274e+05
5.162063864407844841e+06
4.898175240310378373e+07
4.778526990632551312e+08
1.024023733562606120e+00
2.081647125679852994e+00
6.257349994047264552e+00
2.458982170897542829e+01
1.175912447140331381e+02
6.515093941283573713e+02
4.032890699354075878e+03
2.712463608013183693e+04
1.940097113804176915e+05
1.451753236295501003e+06
1.122781152025062777e+07
8.895916588311874866e+07
1.025380927310383106e+00
2.111586619735293269e+00
6.619413034872210666e+00
2.839748799668761592e+01
1.575618506914077273e+02
1.084732361899525813e+03
8.884824305391803136e+03
8.278740972961121588e+04
8.422097959135476267e+05
9.062629481011459604e+06
1.009523996710285842e+08
1.148457370642260075e+09
1.023599095319549734e+00
2.103602447751056204e+00
6.523171648597513084e+00
2.711116948628408352e+01
1.401489609963931571e+02
8.482612743891578475e+02
5.726104217932405845e+03
4.160680131981614977e+04
3.177180846280404367e+05
2.510390105105376337e+06
2.031943324607555941e+07
1.673832157856579125e+08
1.026067881529626247e+00
2.073953388251535745e+00
6.147952982472352446e+00
2.355025701950195227e+01
1.079979791753348337e+02
5.628466334799617243e+02
3.215591008683642940e+03
1.964923741447950670e+04
1.263173997198759607e+05
8.448757348245851463e+05
5.835099415562473238e+06
4.139153523095366359e+07
1.035485322414018139e+00
2.135745067841991141e+00
6.622701846428843631e+00
2.725641077410221769e+01
1.380277173755582680e+02
8.183462830943109338e+02
5.484478780541858214e+03
4.043048924921591970e+04
3.205697602779319277e+05
2.684239917875108775e+06
2.339596504017429054e+07
2.099645456906866431e+08
1.008496974813340108e+00
2.072023607539401180e+00
6.358422204256591215e+00
2.542459942109440618e+01
1.224841614160546897e+02
6.767471885862066756e+02
4.147537788684976476e+03
2.751408929622004507e+04
1.938894432120457350e+05
1.430275738197676139e+06
1.092021840700365603e+07
8.555530591843862832e+07
1.020925169978465386e+00
2.104080953961916300e+00
6.482786917301178065e+00
2.609178976019178720e+01
1.266006686313960614e+02
7.030829388415993435e+02
4.315540414114838313e+03
2.857072183306941588e+04
2.004487761671898188e+05
1.470949035444838693e+06
1.117928435630462505e+07
8.733377031236900389e+07
1.032281747195397115e+00
2.109506660976712578e+00
6.561234572922826302e+00
2.802868382826118321e+01
1.544729964115747407e+02
1.040595900420107682e+03
8.137016516104052243e+03
7.065422827177550062e+04
6.589123183706548298e+05
6.450095944379637949e+06
6.527437228262880445e+07
6.760723770036746264e+08
1.019015970052197018e+00
2.093944199646704085e+00
6.385803125996514673e+00
2.536239128130597820e+01
1.217574456102392872e+02
6.719915257682235961e+02
4.109658287252567789e+03
2.709098202582711383e+04
1.886164421579099726e+05
1.366840501474587945e+06
1.020365597857723385e+07
7.790221340940251946e+07
1.022852468331675979e+00
2.096876659509827157e+00
6.511825860865764426e+00
2.721977303763801004e+01
1.426057826970352664e+02
8.893301377418011953e+02
6.341763027078315645e+03
5.008207201926745620e+04
4.269948651514154626e+05
3.852629772812240757e+06
3.622750387757369876e+07
3.509936415225026011e+08
1.043532211654827124e+00
2.147515264600431628e+00
6.521414337795048866e+00
2.596848613720017696e+01
1.270904589876391526e+02
7.305996913399985715e+02
4.755686641524748666e+03
3.400608223986429221e+04
2.608177473507363175e+05
2.107540513272758573e+06
1.770955612098011002e+07
1.532978101648102999e+08
1.026587443161525393e+00
2.082751264101319943e+00
6.323933583066707165e+00
2.555754326533809362e+01
1.285580246193974290e+02
7.667471577375406468e+02
5.206936154479121797e+03
3.891007896646169684e+04
3.114352443123690900e+05
2.617306236851783004e+06
2.277442925347854197e+07
2.032227126680590510e+08
1.007069962107201011e+00
2.038917525233497230e+00
6.267821287121667417e+00
2.625588025404966075e+01
1.403182867844069790e+02
9.002846316487866716e+02
6.550505261579876787e+03
5.167661337155574438e+04
4.287896696159265121e+05
3.672433087050091010e+06
3.210202785133149102e+07
2.844806795202677846e+08
1.039388557849874051e+00
2.193857285459116291e+00
6.947355576026278179e+00
2.871144902400879317e+01
1.420847228551250225e+02
7.952850544132966206e+02
4.845474198046055790e+03
3.132027370100903499e+04
2.111258243965306028e+05
1.467316645623227349e+06
1.043428168069788441e+07
7.553201961755624413e+07
1.044612690452148884e+00
2.186327981506925866e+00
6.891868283298963505e+00
2.895076391018954354e+01
1.497033179043918096e+02
8.984516524371913420e+02
5.996251456819592931e+03
4.319416075437742256e+04
3.290081748803692753e+05
2.612225976706926711e+06
2.139976019807892293e+07
1.795438292539553642e+08
1.010354244344779495e+00
2.035307609410083707e+00
6.097737375968434570e+00
2.400405616883298521e+01
1.151978489054927337e+02
6.382760718270036477e+02
3.918489630034147467e+03
2.586363260925769282e+04
1.796796817288318125e+05
1.294816412685246440e+06
9.582907726748842746e+06
7.234509168149623275e+07
1.055264637829223417e+00
2.213913213512459954e+00
6.934349652440966238e+00
2.876862729944168606e+01
1.480292493645647482e+02
9.065617706419766364e+02
6.410683476446285567e+03
5.094508275420066639e+04
4.431997240405611228e+05
4.120551062055311166e+06
4.013597592908762395e+07
4.034877417608833909e+08
1.024693799226978008e+00
2.113304398247555671e+00
6.499610718459738479e+00
2.632929102163352297e+01
1.318324965145020258e+02
7.848408829298753062e+02
5.380412131760162083e+03
4.116360821788744215e+04
3.413296787117577624e+05
2.994370645193944685e+06
2.729751815830335394e+07
2.554165066398696601e+08
1.010107532996540325e+00
2.040964463133166262e+00
6.101815588134109625e+00
2.371194241376859324e+01
1.115041766074670448e+02
6.057602810392972970e+02
3.675039152924058271e+03
2.425669880492204175e+04
1.707244334520393168e+05
1.262054531599391252e+06
9.689105003117337823e+06
7.660920745582658052e+07
9.935185522500560307e-01
1.952033104368695371e+00
5.676424403977931021e+00
2.177158450620287766e+01
1.029814153959445804e+02
5.708226958275251945e+02
3.554571113794763733e+03
2.405241435944169643e+04
1.725774185164793453e+05
1.290659856471666833e+06
9.943175910792678595e+06
7.827264491918514669e+07
1.037041026714953240e+00
2.153119427601422942e+00
6.835384864394440818e+00
2.918859414253290296e+01
1.528827159419856798e+02
9.171905283665063280e+02
6.018685823661438917e+03
4.197387486539374368e+04
3.056733009291750495e+05
2.299253243747531436e+06
1.773649852994818613e+07
1.396212877287686765e+08
9.921981098743635208e-01
1.937515025281499215e+00
5.575499070907457444e+00
2.120142094157715462e+01
1.005355723611007193e+02
5.692303586780442402e+02
3.695740019762368320e+03
2.651152411871444929e+04
2.038575723615606257e+05
1.643525095004955074e+06
1.368617964037649706e+07
1.165749278065261692e+08
1.040355225912512838e+00
2.171066699545060708e+00
6.720036771791841446e+00
2.690095533064375388e+01
1.285060411793273261e+02
6.960521457219425656e+02
4.133399900895408791e+03
2.629963478855872381e+04
1.764059240201462817e+05
1.232691364564988995e+06
8.895021702585648745e+06
6.584269333916350454e+07
1.010068957569674630e+00
2.019808104724658548e+00
6.066653244061089190e+00
2.462055891436569510e+01
1.267743189065191842e+02
7.850602437810014180e+02
5.570602567425617963e+03
4.354256880964188895e+04
3.642663001208872302e+05
3.197574214555687271e+06
2.906255463338897750e+07
2.710363697603864670e+08
1.013045447155197509e+00
2.019723570333101570e+00
6.004507658628703837e+00
2.398154437738861944e+01
1.208026859665863810e+02
7.254954170902417445e+02
4.932260588159590952e+03
3.642546193001350184e+04
2.839477423391762422e+05
2.293447366831773892e+06
1.897116561654378474e+07
1.595396779161187708e+08
1.007743597951322290e+00
2.044676548982817810e+00
6.187110687825983391e+00
2.462188332135133351e+01
1.196866037449102578e+02
6.760176531910232143e+02
4.278540724954820689e+03
2.951594887143157757e+04
2.172391826091248076e+05
1.677937008395049721e+06
1.343207945383698307e+07
1.104073433741393834e+08
1.008699420412948022e+00
2.042383990386181125e+00
6.114530535537862299e+00
2.392845564926412294e+01
1.148534747422251883e+02
6.499133857513808152e+02
4.199835254218561204e+03
3.009774561077876569e+04
2.330123329175832623e+05
1.907598607691010926e+06
1.625115942366277613e+07
1.424298545691386461e+08
1.029536936816765724e+00
2.102362091211615880e+00
6.418200008325857908e+00
2.603770528311530441e+01
1.311377938669862999e+02
7.832110505055220528e+02
5.342415381121042628e+03
4.022477574181297678e+04
3.246464161271933117e+05
2.745739570110789035e+06
2.395118190962749347e+07
2.132246635422543883e+08
1.032461672208385250e+00
2.098062654288668671e+00
6.383331231065777267e+00
2.612432758428410295e+01
1.346043834864098585e+02
8.248532087895989662e+02
5.715623843337789367e+03
4.303197551247608499e+04
3.422592856141196098e+05
2.823303449943772517e+06
2.387372831021695584e+07
2.054134748299254775e+08
9.894535409847745600e-01
1.948106948668714145e+00
5.739807140670754038e+00
2.224173000389785670e+01
1.051701473173772143e+02
5.800106073233074540e+02
3.621380077483585410e+03
2.499844399858141696e+04
1.867054900191575580e+05
1.479332186800127150e+06
1.223041011038709246e+07
1.041586494420190454e+08
9.988013985209009959e-01
2.021617233865184549e+00
6.161603090322041787e+00
2.489747188321032212e+01
1.239003819247517981e+02
7.222859837990991991e+02
4.752299773281544731e+03
3.429971432146937877e+04
2.657230256725196377e+05
2.173414815364216920e+06
1.853348531381710619e+07
1.631814739013472795e+08
1.019166330689148081e+00
2.073504420334042475e+00
6.319148093532370503e+00
2.521849590531356711e+01
1.214154399585123514e+02
6.704029798685625110e+02
4.116373331863137537e+03
2.755601029954035403e+04
1.982198647839543410e+05
1.513554563440430444e+06
1.213292028513429128e+07
1.010924199801238924e+08
1.011253923825035983e+00
2.072577864089992339e+00
6.519142566072600786e+00
2.779914558775855937e+01
1.482022286866899492e+02
9.282196926317292309e+02
6.514182505354247041e+03
4.953045968009623903e+04
3.989166853668206604e+05
3.353137859739924781e+06
2.912704979585991427e+07
2.596878518754667342e+08
1.005020452075722881e+00
2.021998993964875257e+00
6.116938464669390285e+00
2.483644462003435294e+01
1.272382479093961649e+02
7.838169386105660124e+02
5.542819544548519843e+03
4.315749198035881273e+04
3.582495594871265348e+05
3.100884356489867903e+06
2.759012468941765279e+07
2.500916502416991591e+08
1.036653851183828356e+00
2.116315246322911126e+00
6.377306922759437668e+00
2.538786900424783610e+01
1.256217922348065485e+02
7.379731230971412970e+02
4.946688080950582844e+03
3.659531156806306535e+04
2.911391962949448498e+05
2.443408257004754618e+06
2.133368943672745675e+07
1.918383575177269578e+08
1.031188000518750147e+00
2.108013897079947796e+00
6.364706117381548900e+00
2.488169303235800456e+01
1.170715367360995458e+02
6.348887059316667774e+02
3.857537095306186984e+03
2.570544125292185709e+04
1.845394249601034971e+05
1.405324321608060971e+06
1.120325060663977265e+07
9.248349544603690505e+07
1.007963854234554146e+00
2.057538219117927003e+00
6.352407326456207315e+00
2.614789516276315950e+01
1.329433151211779602e+02
7.931220415284005867e+02
5.361303551384394268e+03
4.003703901358847361e+04
3.236076948989376542e+05
2.781240320019823499e+06
2.503330692303354666e+07
2.330662288287840486e+08
9.964130164483950836e-01
1.951827632729304041e+00
5.639616726560956472e+00
2.116429532842310479e+01
9.564525478423490767e+01
4.960940810954592735e+02
2.861768703435368479e+03
1.796241939162536073e+04
1.206564389478528901e+05
8.557098090813707095e+05
6.335227534589570016e+06
4.849837328871311992e+07
1.038355536237184129e+00
2.179087768219700294e+00
6.878269208156992498e+00
2.894499675700889796e+01
1.508677340594952057e+02
9.199928310737403763e+02
6.272236877719383301e+03
4.622561265857603576e+04
3.597785361280175275e+05
2.911500563742987812e+06
2.424571058132367954e+07
2.063259919883071184e+08
1.016456128195919462e+00
2.098968256877749461e+00
6.647393350850860472e+00
2.897248834911631477e+01
1.649033494993702504e+02
1.175460171782890484e+03
9.975027648105777189e+03
9.553389681027336337e+04
9.886288619864305947e+05
1.073271972759347595e+07
1.200255899182046503e+08
1.367736766387995005e+09
1.004686043369604986e+00
2.008615782275128048e+00
5.981799002091103823e+00
2.334223552787720379e+01
1.103036320782649113e+02
5.968831127958605975e+02
3.551692432135615491e+03
2.258382211356369589e+04
1.504699300475413038e+05
1.036666033246475388e+06
7.319667108502919786e+06
5.264725763805577159e+07
1.019121778379125320e+00
2.094563001903587907e+00
6.648496983688958473e+00
2.902651252835155304e+01
1.605742216596227649e+02
1.052962050871179827e+03
7.780109084756281845e+03
6.251286893695226900e+04
5.333311223974031163e+05
4.754682855526347645e+06
4.381183333255620301e+07
4.140517731819770336e+08
1.001233352742617155e+00
2.012169946422754485e+00
6.232294714989706996e+00
2.672448078793975412e+01
1.485871774288255551e+02
1.013365408464195184e+03
8.032449774347966923e+03
7.057060983453632798e+04
6.630770502341820393e+05
6.504812355574214831e+06
6.562201460262680799e+07
6.744367070320566893e+08
1.007525562201381453e+00
2.023216330448356359e+00
6.099512843308677823e+00
2.468263021620411379e+01
1.259443585094814466e+02
7.711812788398534622e+02
5.410665557731763329e+03
4.178148898309181095e+04
3.443191079982076189e+05
2.963958486241342966e+06
2.627785558243310079e+07
2.377745558008653820e+08
1.006115302139197087e+00
2.063273105414561215e+00
6.444430570303371297e+00
2.740694716905781902e+01
1.491278236353854538e+02
9.877228505229094253e+02
7.597895778795646947e+03
6.511964575357515423e+04
6.019758783735523466e+05
5.863864431067317724e+06
5.923658053829098493e+07
6.138821794023096561e+08
9.947507326570296238e-01
1.985829977240494593e+00
5.858673763901674825e+00
2.255069264648065541e+01
1.059469939928724074e+02
5.797483592572532416e+02
3.554442366230087828e+03
2.365478239360814769e+04
1.668345373682526988e+05
1.226171808088429738e+06
9.284566003121342510e+06
7.187941061111636460e+07
1.012853619230715152e+00
2.022376345413216647e+00
6.020315719385176401e+00
2.375418982841291893e+01
1.153148256926668864e+02
6.526555562882150525e+02
4.142258846941166667e+03
2.866972905992217784e+04
2.120387818906885514e+05
1.650484945302631939e+06
1.336516996001305990e+07
1.115896291848602742e+08
1.003288443363002491e+00
1.998590005520877178e+00
5.889997546854008448e+00
2.260393141410903439e+01
1.048876671579950255e+02
5.591350205394919612e+02
3.296078938813061995e+03
2.088620065763761158e+04
1.394007824760257208e+05
9.661873837783539202e+05
6.886976762196847238e+06
5.015048255593451113e+07
9.876939302497426132e-01
1.926192996460065032e+00
5.632939676257701755e+00
2.207928083051945833e+01
1.085851731887079410e+02
6.354049955496031998e+02
4.217750895399813999e+03
3.052771910873001252e+04
2.340574940480157384e+05
1.864384962621404324e+06
1.523775875555117987e+07
1.267765630285519361e+08
1.009280247389916063e+00
2.073609913632738166e+00
6.484432660973684648e+00
2.704986800461804464e+01
1.389869165157892326e+02
8.329770988029846421e+02
5.596807999334476335e+03
4.093515487982738705e+04
3.188575854692996363e+05
2.602903375044987537e+06
2.200852220765481889e+07
1.911141866635881364e+08
1.022457497505971480e+00
2.067095697654770525e+00
6.219456232061052248e+00
2.449375844884852427e+01
1.167946169074207887e+02
6.401406073283867499e+02
3.887276054775138618e+03
2.546329813824374287e+04
1.764485717181090440e+05
1.275392714211689308e+06
9.519357276990987360e+06
7.283824125413125753e+07
1.008892235082500033e+00
2.048734754832756355e+00
6.107893164897661542e+00
2.317655090425013498e+01
1.032310055635457928e+02
5.142811704671055395e+02
2.779796657453068747e+03
1.597286818819547079e+04
9.616931447462449432e+04
6.003227563848058926e+05
3.854908773030559532e+06
2.531418807694436237e+07
1.023902166564225169e+00
2.049905375175170796e+00
6.099248036831965258e+00
2.394971954522237922e+01
1.152845614443600653e+02
6.455360414246433720e+02
4.043722794856666496e+03
2.751604144554767845e+04
1.989864175514593953e+05
1.504948612588722957e+06
1.176616033585322462e+07
9.430494593799799681e+07
1.015439713168002411e+00
2.060391146169341603e+00
6.155734399024619385e+00
2.377568746575611058e+01
1.110734600120399875e+02
6.044471514878334801e+02
3.730601316999461233e+03
2.550129930800295188e+04
1.888236851385152549e+05
1.485163303577554412e+06
1.221366140046672150e+07
1.037667759858290851e+08
1.004572047287464187e+00
2.034394435181063887e+00
6.114935563297692056e+00
2.388226972567652595e+01
1.124814938782041338e+02
6.086071130483037450e+02
3.655321574138319193e+03
2.376898895428042670e+04
1.643205862930371659e+05
1.191697453968079994e+06
8.976340480480216444e+06
6.969283900720310211e+07
1.003827397519756026e+00
2.040976468477774919e+00
6.354095095531217652e+00
2.691268509263160524e+01
1.430649203512485030e+02
8.946869736457905447e+02
6.263628680399127916e+03
4.740247243035773863e+04
3.787833110645628767e+05
3.146424228984009009e+06
2.688568732350839302e+07
2.346207032104622126e+08
1.000969838947658896e+00
2.014992929005960498e+00
6.168824969417953774e+00
2.580606944681159476e+01
1.387253324971468373e+02
9.074399642559045560e+02
6.849695515346183129e+03
5.706062498526191484e+04
5.078706503328893450e+05
4.726860157103163190e+06
4.537082144206813723e+07
4.451189315309360623e+08
1.011370962427550646e+00
2.050994784161425333e+00
6.108474021647780638e+00
2.357607566271568089e+01
1.099177637826510789e+02
5.901937262590546425e+02
3.526769019092519102e+03
2.288461912650569138e+04
1.584128535168138333e+05
1.154493029157394776e+06
8.768315361804030836e+06
6.883696491821788251e+07
1.021710048441460517e+00
2.132125484951876260e+00
6.753009157301932852e+00
2.846361502703797441e+01
1.475959169787015526e+02
8.927841316223408512e+02
6.065367250474910179e+03
4.503811010330959107e+04
3.583758430394140887e+05
3.011127661476441193e+06
2.640999819831340015e+07
2.395798788379256725e+08
9.800392608993797605e-01
1.895650943548533585e+00
5.450769652661242581e+00
2.063192657838272126e+01
9.533451811768495077e+01
5.084709258753451877e+02
3.000272104977021627e+03
1.899563293943037934e+04
1.263587940586662735e+05
8.706838324782527052e+05
6.155725521076002158e+06
4.436574072321321070e+07
1.008831685322578942e+00
2.041617784409452074e+00
6.148187815633870734e+00
2.395661353835984997e+01
1.112122780425863340e+02
5.832832957986910287e+02
3.336902621575508419e+03
2.033712357672847793e+04
1.299261442090101045e+05
8.602762877277939115e+05
5.855526594983074814e+06
4.072550338906734437e+07
9.973632235988483252e-01
2.000397759484933591e+00
6.156142708890494752e+00
2.572847044794809790e+01
1.340493583141723946e+02
8.148184765067253466e+02
5.503271354032352065e+03
3.994473497138323728e+04
3.048674762044760282e+05
2.412506248229315039e+06
1.961290192382196337e+07
1.627981083415799439e+08
1.004795869516178497e+00
1.998306825776758888e+00
5.814498652094024500e+00
2.182133654869454631e+01
9.841773813395293757e+01
5.090003850180560789e+02
2.915945303111593148e+03
1.801916080321247864e+04
1.177216186922331544e+05
8.011533384997008834e+05
5.619379824375363998e+06
4.031717370211803913e+07
9.981578199118671391e-01
1.994661618690696026e+00
5.970422488013159779e+00
2.343878065545826672e+01
1.114363344935065641e+02
6.079729639063207287e+02
3.664490765335128799e+03
2.375476531372969112e+04
1.625148191978426767e+05
1.157896701025577728e+06
8.511116489012397826e+06
6.410559054360241443e+07
1.015345638660965388e+00
2.042131110231996782e+00
6.127466622510014282e+00
2.432497179701893231e+01
1.182272001952773479e+02
6.637927608663296724e+02
4.124017096069619583e+03
2.751116225410025436e+04
1.931142736840063881e+05
1.407391147766317707e+06
1.055395580280702747e+07
8.093655827532558143e+07
9.987532256087501281e-01
1.941281227057614966e+00
5.560035809893740577e+00
2.083526935536354685e+01
9.482641148875545412e+01
4.961265462478183395e+02
2.862900472852531493e+03
1.768054477282574953e+04
1.144286405664821068e+05
7.651338221147345612e+05
5.235639237190349959e+06
3.643111689168006182e+07
9.942982456678290948e-01
1.977440179553649147e+00
5.993472705934431488e+00
2.465056460485808643e+01
1.278989839126975738e+02
7.907468743599258687e+02
5.555440244719715338e+03
4.271490177136005514e+04
3.496841008060903987e+05
2.990760981194159016e+06
2.638741635546082258e+07
2.381546274040963948e+08
9.999327852116263182e-01
1.991353401991714511e+00
5.876971774968065887e+00
2.264980582623458361e+01
1.057464724128730609e+02
5.682089097360228607e+02
3.388949250599407151e+03
2.186455076923566230e+04
1.497732315960876585e+05
1.074343530741284834e+06
7.985975067920535803e+06
6.102658163173101842e+07
1.005642055175950400e+00
2.025231157472451304e+00
6.151086502765367392e+00
2.493230141664005473e+01
1.244652677029145735e+02
7.208081753238160445e+02
4.639377150929677555e+03
3.224435679362923838e+04
2.374719827480990498e+05
1.830055870770700742e+06
1.462652072378611378e+07
1.204245296288879067e+08
1.018241777042252938e+00
2.065492554789289503e+00
6.215665745149962618e+00
2.440091064097085294e+01
1.162764168603272168e+02
6.424350150485523727e+02
3.979903508426109511e+03
2.690759237087168003e+04
1.941677941209384589e+05
1.469328832366923569e+06
1.150578544436751120e+07
9.233744839006988704e+07
9.941001849575847871e-01
2.006846010898083676e+00
6.137191536723346275e+00
2.502377015331616050e+01
1.251719556426014890e+02
7.219945050709466159e+02
4.589769559977808967e+03
3.116322094943229604e+04
2.212868027087486116e+05
1.620700053280749358e+06
1.213116300759889558e+07
9.223587130823616683e+07
9.917589455965409861e-01
1.972382141398671740e+00
6.086287806020758140e+00
2.804550487767355449e+01
1.957956540841792901e+02
1.928230441798001948e+03
2.325897778763451061e+04
3.087678121851746691e+05
4.276620673296906985e+06
6.038790298707480729e+07
8.606813022524951696e+08
1.232564204314463043e+10
1.014052334823059454e+00
2.056707121806588656e+00
6.182247996597576289e+00
2.412249927999306465e+01
1.136213701341753790e+02
6.168121163804190701e+02
3.733789085734055789e+03
2.458792040426445601e+04
1.728657361147476477e+05
1.278837466131195892e+06
9.842867144371440634e+06
7.811974295255464315e+07
1.012637531162696947e+00
2.067836899527417671e+00
6.427882691253918424e+00
2.702665989420249204e+01
1.437264346366565348e+02
9.175287598025976195e+02
6.704291418631845772e+03
5.382046862388095906e+04
4.601282935496172868e+05
4.100431548436095472e+06
3.756073973140395433e+07
3.505349060204136968e+08
9.967178363651230111e-01
2.008258557728226368e+00
6.221558439975646060e+00
2.637434067322771725e+01
1.415903337275702825e+02
9.053480892288996529e+02
6.564424643551643385e+03
5.198973981090527377e+04
4.377611916844863445e+05
3.845900556537769269e+06
3.480529133657199889e+07
3.216735001270654798e+08
9.989175979870413835e-01
2.035839558658558257e+00
6.519082565548649733e+00
2.976231764544718317e+01
1.837711497852934599e+02
1.455804471312880196e+03
1.385931925663300171e+04
1.487732571255925286e+05
1.716852054378530243e+06
2.066609240236442909e+07
2.549522390963132083e+08
3.191452988941041946e+09
1.029285638123976554e+00
2.081335876727847367e+00
6.452350414194980566e+00
2.857470243826113432e+01
1.755705831445420984e+02
1.416688750732338121e+03
1.380148441489510151e+04
1.504245511525291076e+05
1.745209915560750989e+06
2.096337000456953421e+07
2.569001395170684755e+08
3.186684976502042294e+09
1.010712661860226236e+00
2.034755895147855487e+00
5.946716579086520404e+00
2.212233559615500766e+01
9.791398117430260584e+01
4.959366130448810281e+02
2.801544496574282221e+03
1.730372494198619825e+04
1.148910603547853971e+05
8.079396976601964561e+05
5.941472495201767422e+06
4.521683757908970118e+07
1.028316662134503900e+00
2.096248094561874442e+00
6.539739341029098263e+00
2.838172774400013765e+01
1.614073969603148839e+02
1.128798559025128270e+03
9.098363424595965625e+03
8.024711734517196601e+04
7.482628509729061043e+05
7.225180537676252425e+06
7.138398929302752018e+07
7.165991324734249115e+08
1.003639896475389870e+00
1.981970251122985305e+00
5.785672031782373104e+00
2.223158471081704590e+01
1.061533116592584349e+02
6.100532956606089101e+02
4.113748647039676143e+03
3.161385748952593713e+04
2.680069314732161583e+05
2.432026996369891334e+06
2.307580460316567123e+07
2.252400542205258608e+08
1.017533905776935699e+00
2.073616463009179345e+00
6.334429638643561233e+00
2.558989761682449426e+01
1.269087553209180896e+02
7.329253855247858382e+02
4.735360124186853682e+03
3.320563967530674563e+04
2.471819758745067520e+05
1.922776410091836005e+06
1.545765147253756039e+07
1.274310864003284425e+08
1.009845300555639591e+00
1.991900493827802654e+00
5.941224516329055128e+00
2.444637439604187179e+01
1.315092107528698762e+02
8.786485423913100021e+02
6.908724892011794509e+03
6.088545750765033881e+04
5.791486755848804023e+05
5.792308450800774619e+06
5.987113817621475458e+07
6.325114886877452135e+08
1.007463661442530967e+00
2.045265805074059973e+00
6.332608868406706115e+00
2.660512917216666295e+01
1.409503085527696840e+02
8.871491666537834817e+02
6.311292456496751583e+03
4.885247133097540791e+04
4.005774229141654796e+05
3.417776236235327087e+06
2.998656335859462246e+07
2.684249104668775797e+08
1.015563303639961168e+00
2.086819808530627096e+00
6.459744727260484431e+00
2.648212525902889070e+01
1.332428415556040306e+02
7.802161269633513712e+02
5.111297815305205404e+03
3.637189294497071387e+04
2.750178815781738376e+05
2.173895299844003282e+06
1.774998972123004869e+07
1.484052212434787154e+08
9.910264811471081181e-01
1.897140143055160433e+00
5.261960244590631497e+00
1.874652467313012494e+01
7.978646368260379518e+01
3.860506996400568482e+02
2.053180353457972615e+03
1.173750546109665629e+04
7.105858436131228518e+04
4.508122860293023987e+05
2.973300794775368180e+06
2.025306667245835066e+07
1.010378133897209985e+00
2.014827492866516412e+00
5.942062444671953436e+00
2.321729315906265967e+01
1.131373174221073157e+02
6.577481793268161709e+02
4.387494211630383688e+03
3.242289503799543672e+04
2.577909880668509868e+05
2.156589503699094057e+06
1.868230042432568222e+07
1.657739197811433673e+08
9.772191690218410276e-01
1.904199203758353276e+00
5.621498596349223220e+00
2.219949263947878393e+01
1.083355913211279216e+02
6.174428553998569669e+02
3.946493219307329127e+03
2.748247984963199997e+04
2.042042559579307854e+05
1.594243405841017375e+06
1.292748133325964957e+07
1.079322464373095185e+08
1.001352674305281187e+00
1.979826304873577136e+00
5.840430141603805581e+00
2.292628898888373357e+01
1.123425236765448432e+02
6.569291637857182877e+02
4.410267876582056488e+03
3.283109480439296021e+04
2.632077351157598314e+05
2.222174593230717350e+06
1.944331333524309099e+07
1.743849709382416606e+08
1.019206821163131993e+00
2.050489446061537713e+00
6.065999998747452437e+00
2.349201916970480397e+01
1.118637054208792563e+02
6.266148156782048773e+02
3.980850228012903244e+03
2.780544851517540155e+04
2.081917158730996307e+05
1.638665220913601806e+06
1.336497382171359472e+07
1.118034254437969923e+08
1.007486211035893087e+00
2.029670743865183979e+00
6.147186226106688522e+00
2.491827412163977229e+01
1.255300549548701525e+02
7.415465917997902352e+02
4.910024057885019829e+03
3.526619045534956967e+04
2.686072647621575161e+05
2.136094960864203516e+06
1.754611575280969962e+07
1.477243215219705999e+08
9.989441840255482985e-01
2.004783231900720608e+00
6.079444433001551573e+00
2.454411393261501573e+01
1.212055042241353533e+02
6.872397160332310477e+02
4.278478497205678650e+03
2.839217255677126377e+04
1.970380945253947866e+05
1.412522385413096752e+06
1.037550004059013911e+07
7.766057276478332281e+07
1.001642545842663878e+00
2.026948286739174154e+00
6.236697956283975053e+00
2.595887318669907273e+01
1.357611612757744126e+02
8.397948378008615009e+02
5.843101161039560793e+03
4.401484407293349796e+04
3.495355165784340352e+05
2.875451931312362198e+06
2.422979268058937415e+07
2.076310378449178338e+08
1.011817664998007960e+00
2.072545425094473259e+00
6.521801571671540287e+00
2.812993112183229272e+01
1.541443007536456946e+02
1.006110270898694921e+03
7.409002548408258008e+03
5.909200787325133570e+04
4.964774030836662278e+05
4.316994600545380265e+06
3.842301007801556587e+07
3.476556925600250959e+08
9.948259674242145856e-01
2.007372087106408909e+00
6.241441204171724877e+00
2.702463761221534355e+01
1.544695329646311848e+02
1.113949290425344088e+03
9.616221070046334717e+03
9.411097849460910948e+04
9.983185492125874152e+05
1.112601630372300558e+07
1.277401536701734811e+08
1.493158832601980448e+09
1.005903887916461459e+00
2.008265192717651360e+00
5.873635761494925056e+00
2.197941382264522758e+01
9.749373326681570973e+01
4.898404473157698362e+02
2.709528811902826419e+03
1.618360810748528638e+04
1.028727463842164289e+05
6.878937413100452395e+05
4.792521362824956886e+06
3.451133017165350914e+07
9.982898971254255960e-01
2.012832578889903967e+00
6.213111464632184777e+00
2.608996836093063720e+01
1.383813080541388274e+02
8.754311034866722139e+02
6.299546609595081463e+03
4.965327741455484647e+04
4.168660412540292018e+05
3.655770703187995125e+06
3.305062615357659385e+07
3.053475458325612545e+08
9.958566306511450472e-01
1.988816392308250913e+00
5.997989666664675035e+00
2.409711438336761802e+01
1.193246680179453563e+02
6.899043479128338276e+02
4.479541930863576454e+03
3.174942056723844871e+04
2.405325870667731506e+05
1.917390276671053609e+06
1.589187166527447291e+07
1.357184705318254232e+08
1.009501269258985978e+00
2.058364888144413651e+00
6.395171579303617015e+00
2.720911623719468508e+01
1.491234835183961707e+02
1.000351075337272846e+03
7.815304247944958661e+03
6.800466221595721436e+04
6.363910031677398365e+05
6.248541170665575191e+06
6.332988480516959727e+07
6.556318569268378019e+08
1.003752100003185488e+00
2.022957229712991634e+00
6.213088026584694390e+00
2.572178600459530529e+01
1.316836333457765988e+02
7.803744035915015047e+02
5.108517035284872691e+03
3.582061033536310424e+04
2.637605624099072302e+05
2.013179988296304131e+06
1.578734433674593456e+07
1.264058450170791298e+08
1.010602288082096623e+00
2.026451158982867984e+00
6.071164921867244324e+00
2.399656413683261391e+01
1.151950417369040309e+02
6.318851221649725858e+02
3.795512991839592360e+03
2.428109337050999966e+04
1.625644994502106565e+05
1.126524052603352582e+06
8.022208502785455436e+06
5.842068407090608776e+07
1.015530101690774956e+00
2.086373682241534855e+00
6.542669612910269272e+00
2.772598319896285801e+01
1.462112061996202783e+02
9.007389830271952178e+02
6.188829836932452054e+03
4.591932578272630053e+04
3.599182955207464402e+05
2.935551474081219174e+06
2.465492007379266992e+07
2.116553490202847719e+08
9.995341662038575992e-01
1.953352502029748194e+00
5.610016511060931244e+00
2.090825695275303886e+01
9.396704037793486464e+01
4.850169660895901984e+02
2.777765329342269069e+03
1.720877505601100711e+04
1.131335691815922619e+05
7.778987446713054087e+05
5.533793221227954142e+06
4.040044856006658822e+07
9.977808948031200442e-01
2.009600950594252922e+00
6.092963029107715478e+00
2.444817323647689378e+01
1.208797244057186333e+02
7.036969997226539135e+02
4.657511520418172950e+03
3.400593080546509009e+04
2.669385996690848260e+05
2.207142553806526121e+06
1.893252895148386434e+07
1.666781236610441804e+08
9.948996829078360360e-01
1.951321202109200126e+00
5.760423476518125696e+00
2.319575206199752770e+01
1.203726916777385014e+02
7.648879279315153781e+02
5.663000787356083492e+03
4.678928609364519070e+04
4.172278888576994650e+05
3.919960135812375229e+06
3.816595866591528058e+07
3.808062673350318074e+08
9.966053067232926166e-01
1.992894347799345267e+00
6.054351242326844407e+00
2.507810956747936260e+01
1.316102182757910555e+02
8.180477678418880032e+02
5.689857857175628851e+03
4.252473821834049886e+04
3.327707982737034326e+05
2.683888323687478900e+06
2.209778610628713667e+07
1.846389074986579120e+08
1.018609057037378918e+00
2.069879752302459242e+00
6.270701636667949330e+00
2.515061285173154459e+01
1.250160448185862379e+02
7.335766339029786423e+02
4.871215707251402819e+03
3.532009663496152643e+04
2.720700079374818015e+05
2.183656094312363304e+06
1.802411208376573399e+07
1.516838106690723002e+08
1.005814709796023054e+00
2.001472601871223667e+00
5.905106862044401161e+00
2.284132824132031558e+01
1.088222277413565422e+02
6.167729829005901365e+02
4.048129201571128306e+03
2.990888665301537912e+04
2.415604366507844825e+05
2.077728780479598790e+06
1.865128684413477406e+07
1.722698187801619768e+08
9.725455684182914284e-01
1.902929811068809318e+00
5.519201314539376568e+00
2.071197949615313405e+01
9.311426758832378425e+01
4.785071708731876470e+02
2.727516919761413646e+03
1.689089743981142965e+04
1.118917558863965241e+05
7.830008398459162563e+05
5.727623127432293259e+06
4.340773924070831388e+07
1.028518742522439355e+00
2.145301238187543813e+00
6.803613121796280083e+00
2.889805401502963633e+01
1.522931654973420734e+02
9.494823644509517635e+02
6.785471133097963502e+03
5.417508357704514492e+04
4.716490760284111020e+05
4.378617231101110578e+06
4.254405884570987523e+07
4.265259738121164441e+08
1.018830127760621096e+00
2.062378835773508445e+00
6.087039773781672380e+00
2.291455884805230525e+01
1.020196251226313677e+02
5.125764903965907706e+02
2.818698482828076976e+03
1.661144609591564586e+04
1.033213414677850524e+05
6.704505384409985272e+05
4.498230442981540225e+06
3.098626485223373026e+07
9.799669529331606066e-01
1.884653525517057115e+00
5.275017405230650880e+00
1.898547043708576254e+01
8.192885514821354320e+01
4.044641354159408593e+02
2.208536480908968770e+03
1.301634429942977476e+04
8.134714745440881234e+04
5.321631974253726657e+05
3.609123291928967461e+06
2.518832078690325469e+07
1.013521903512269118e+00
2.051856561620358566e+00
6.214087520023964473e+00
2.513502936175708768e+01
1.265526411865181018e+02
7.492232032800825436e+02
4.977269560742941394e+03
3.582006484258709679e+04
2.724975886155259795e+05
2.155587971498033963e+06
1.753883494456294924e+07
1.457103000801254809e+08
9.933607443070054943e-01
1.996611876025392140e+00
6.094915296758504297e+00
2.525932874017275864e+01
1.326683454685432366e+02
8.344010668426216171e+02
5.990453336948937249e+03
4.728140008739909536e+04
3.990286697176996386e+05
3.530360833603808656e+06
3.229628723492063209e+07
3.026030570749603510e+08
9.909896417271050195e-01
1.942809096069014307e+00
5.608818432280799016e+00
2.110265902703874019e+01
9.695848351163110124e+01
5.240320811463595874e+02
3.241114185637385617e+03
2.233161985601856941e+04
1.668667440024141688e+05
1.320547356758858776e+06
1.086701137175212055e+07
9.179771697693081200e+07
1.011009866970077775e+00
2.006687907968407902e+00
5.907626497572903368e+00
2.273336495531307477e+01
1.059956501596384726e+02
5.690353597341839986e+02
3.390499525096558955e+03
2.181611057543549396e+04
1.485252111302493431e+05
1.053840114412833937e+06
7.707706873628992587e+06
5.765103864203850925e+07
1.009167340293281923e+00
2.058717794895867925e+00
6.359892955271202020e+00
2.619852081215389461e+01
1.322792924140411515e+02
7.694464617800521182e+02
4.934185784718481045e+03
3.385916104863997316e+04
2.437871600276769022e+05
1.817726354303901549e+06
1.391075497137383185e+07
1.085812647424946427e+08
1.002627124475185427e+00
2.008898441515006184e+00
6.071747573372086926e+00
2.459723692560332964e+01
1.243366204853594041e+02
7.438417756505263014e+02
5.048348634426289209e+03
3.757577888097391406e+04
2.988327037467143382e+05
2.490818757234492805e+06
2.146223686675742269e+07
1.893425717041878998e+08
9.966135854509579062e-01
1.998582122826557894e+00
6.185508021502214682e+00
2.709605988279059829e+01
1.603226499065988264e+02
1.207276937588890178e+03
1.074549234974366664e+04
1.059890277741079335e+05
1.109688507370412815e+06
1.202795524178451858e+07
1.331248981548027545e+08
1.493200034881471395e+09
9.968331376745066530e-01
2.038728728443826022e+00
6.366969063787818683e+00
2.706597007064047133e+01
1.477240837695333653e+02
9.888069442694988993e+02
7.720202325647942416e+03
6.692640919131376722e+04
6.195743597540729679e+05
5.966984930913775228e+06
5.883461387736999989e+07
5.883697151838352680e+08
9.881221150711611001e-01
1.932505061468696494e+00
5.575431784709741656e+00
2.079433282790201076e+01
9.291073417649496946e+01
4.746105433326544585e+02
2.691226801769625581e+03
1.660951364884437135e+04
1.099623067437600257e+05
7.716284537411767524e+05
5.678992640525112860e+06
4.342716451407311112e+07
9.754584667309310619e-01
1.900983939197373518e+00
5.467958136556766213e+00
2.039934663245612256e+01
9.139360856848740866e+01
4.661408771619146592e+02
2.603541640256215487e+03
1.548827840887714410e+04
9.626424114739731885e+04
6.169690513364796061e+05
4.041708110702086240e+06
2.690164235809747130e+07
9.994559744691374759e-01
2.002099350650362375e+00
6.051655543010983962e+00
2.437944937275707602e+01
1.206638731504591533e+02
6.903364684475129707e+02
4.361901320967405809e+03
2.946860137784028120e+04
2.082719124879796291e+05
1.518117134893509559e+06
1.130836521959258057e+07
8.557353921205277741e+07
9.916254307485130592e-01
2.000247092417434480e+00
6.174623653128996636e+00
2.601924208342636291e+01
1.385876015705093778e+02
8.730309681696421649e+02
6.156938746014237040e+03
4.670695205869084748e+04
3.712354148360452964e+05
3.041060910926708486e+06
2.541660933163720369e+07
2.153824196708030999e+08
1.010734173406049097e+00
2.043364498807229257e+00
6.164911148089224469e+00
2.412712479352270378e+01
1.121026552425449836e+02
5.846649097644724407e+02
3.306524373262891459e+03
1.984726548073891172e+04
1.247040931664497184e+05
8.124369385798767908e+05
5.450334090654346161e+06
3.745230447876936197e+07
9.858713391404665405e-01
1.892702547330228136e+00
5.425335731059766076e+00
2.094808561432769523e+01
1.018931573567427904e+02
5.894589853993501265e+02
3.861615736097097397e+03
2.757814218429714674e+04
2.089432860649318609e+05
1.648576404567154823e+06
1.337903190270706266e+07
1.107592753101782501e+08
9.916324436412978782e-01
1.966368431446472886e+00
6.059727344705298613e+00
2.707372056613684919e+01
1.677594610664925199e+02
1.334327320123424670e+03
1.244946819889974722e+04
1.273546355661466660e+05
1.372831755492646014e+06
1.526571825882116891e+07
1.731278375449097753e+08
1.989755986342984438e+09
9.983164774795603158e-01
1.983794714549463212e+00
5.792906288393552927e+00
2.191275568111525018e+01
1.003633121607856253e+02
5.330873460778765320e+02
3.179788898583176433e+03
2.075313490790814467e+04
1.451081495849464263e+05
1.069086422405671095e+06
8.195132941371218301e+06
6.474800831759620458e+07
1.009870276139585021e+00
2.078737519807967171e+00
6.511114656405586842e+00
2.715887300793950843e+01
1.390043872299194447e+02
8.262365612778696686e+02
5.485260309692861483e+03
3.952959013902582228e+04
3.028053695680131204e+05
2.427991905364243314e+06
2.015187725507501885e+07
1.717250144660005867e+08
1.010199734432327467e+00
2.044259029577353726e+00
6.269878490184733977e+00
2.646832959549196573e+01
1.446351863427892113e+02
9.599817258822221220e+02
7.278970518135794009e+03
6.011704000362847728e+04
5.239222134031181922e+05
4.724900628425968811e+06
4.357791497562608868e+07
4.081116833121036887e+08
1.002080789686311091e+00
2.012205888937346643e+00
6.041536966248016505e+00
2.365058351599183695e+01
1.115139515923384153e+02
6.027689634269974022e+02
3.611407143292366527e+03
2.339387079446901771e+04
1.607495381904965616e+05
1.154707753534064628e+06
8.575743105890400708e+06
6.530968450059583783e+07
9.868055346300571573e-01
1.935954352554869473e+00
5.585100700822985154e+00
2.062011354588371503e+01
8.976997580351375916e+01
4.374664681149666876e+02
2.307281390066362292e+03
1.288317999368702840e+04
7.504606870781476027e+04
4.514942999151570257e+05
2.785690871768988203e+06
1.753721121504187584e+07
1.003020442083596642e+00
1.981847533833646091e+00
5.812492704065344462e+00
2.248194932051716322e+01
1.064387516741686426e+02
5.832240732822363043e+02
3.547379092093054169e+03
2.325164754412342518e+04
1.609137196316350310e+05
1.159276298341884743e+06
8.608332542956335470e+06
6.541672452024646848e+07
1.016929976318365014e+00
2.080976990245538616e+00
6.377870323628663130e+00
2.562785879092110619e+01
1.246718309040039259e+02
6.965639695314177970e+02
4.306273120108536204e+03
2.866086571244565857e+04
2.012494912956315966e+05
1.469047158785947133e+06
1.103079359407969750e+07
8.456738023176528513e+07
1.011906493145554364e+00
2.013791892685214524e+00
5.863363912521278642e+00
2.192540205403840048e+01
9.735336281237641742e+01
4.878792474737855969e+02
2.669508176772546904e+03
1.560338925878469854e+04
9.600408677880250616e+04
6.154613924521113513e+05
4.080657030788833741e+06
2.782501910743699595e+07
1.019972881797964082e+00
2.072330416189919866e+00
6.297194804906085963e+00
2.538889237173488311e+01
1.264573525072407278e+02
7.398959668855587779e+02
4.894212440431238065e+03
3.551553775004465570e+04
2.761263481240986730e+05
2.258541124949601945e+06
1.917011114843732491e+07
1.671585078863918483e+08
1.002376532074911397e+00
1.991334161138944570e+00
5.818263508074537960e+00
2.199167446159266959e+01
9.952990322336165718e+01
5.118077534961990978e+02
2.885541084248728566e+03
1.741739830835447356e+04
1.107903579936234164e+05
7.346918085451668594e+05
5.040427886012322269e+06
3.557098398151069880e+07
9.908798918482307760e-01
1.927832208928618396e+00
5.588115256360298488e+00
2.162297078563980435e+01
1.048235136890327794e+02
6.076571440318112991e+02
4.050855383224251000e+03
3.003328049116269176e+04
2.409215875997421681e+05
2.046535872994108591e+06
1.811466017472359911e+07
1.651252792005141377e+08
1.005085772301861802e+00
2.046147180301013613e+00
6.168213570899172993e+00
2.411758260906912454e+01
1.142324884799435694e+02
6.307994982469690513e+02
3.959620642890033196e+03
2.766894199029983065e+04
2.109862852998628223e+05
1.722469380935075693e+06
1.480025164987821504e+07
1.319743972570793778e+08
1.012404367503419778e+00
2.047196029470065959e+00
6.285237378746424852e+00
2.616053074586995564e+01
1.375747464869922112e+02
8.631195683520205648e+02
6.155407244601331513e+03
4.807262392643429484e+04
4.004102954279938713e+05
3.493647669143495150e+06
3.154628162244272977e+07
2.923310377949244976e+08
9.851497447283142916e-01
1.907216886164654124e+00
5.435392181032859149e+00
2.029874524789854817e+01
9.244384467652950832e+01
4.864299955150770529e+02
2.838026064182612572e+03
1.781464123549648139e+04
1.177771293860581063e+05
8.080903527331212536e+05
5.695695103981083259e+06
4.094938712257014960e+07
1.021768336640835440e+00
2.085146992916587116e+00
6.418303273940350273e+00
2.693677765880374153e+01
1.469813051142359370e+02
1.001821608503646758e+03
8.128874136234568141e+03
7.466381255375531327e+04
7.443247223715762375e+05
7.816979022074813955e+06
8.483307387702079117e+07
9.400070969665566683e+08
9.879543302687129325e-01
1.993830482812881666e+00
6.121694392826952935e+00
2.550232202005778959e+01
1.350069810624350453e+02
8.599198331385941856e+02
6.266083247063656017e+03
5.009680526051650668e+04
4.262117674581950414e+05
3.780280815303270705e+06
3.449422854482419789e+07
3.210719707296504378e+08
9.923620487301347826e-01
1.997603181316072396e+00
6.019485363382851340e+00
2.423153888094493880e+01
1.232806489273995538e+02
7.643071791854212051e+02
5.577626885478361146e+03
4.616634960684229009e+04
4.182687024415780324e+05
4.028692504476431757e+06
4.038644814718333632e+07
4.153962983803737164e+08
1.002523815031487464e+00
1.970017406208316890e+00
5.747425297739389372e+00
2.239212167649109730e+01
1.100698382849285508e+02
6.565484555546548791e+02
4.590148422623354236e+03
3.631417334586033394e+04
3.143748181270164787e+05
2.895741809350631665e+06
2.779425153918078542e+07
2.740414985148549676e+08
9.876229738368760280e-01
1.913472510554173667e+00
5.379302491875346703e+00
1.934868091204409168e+01
8.284722297639267197e+01
4.028051416664728777e+02
2.153377787638768496e+03
1.237581035323906144e+04
7.522625570981216151e+04
4.777433453093013959e+05
3.140367357013067696e+06
2.121238239963827655e+07
9.944072666362039348e-01
2.010026072542465236e+00
6.220775604107047663e+00
2.666615165852609692e+01
1.504732794090066363e+02
1.063737879917208829e+03
8.881479563445098393e+03
8.283826634739928704e+04
8.280081887260534568e+05
8.635149212497560307e+06
9.245636163950020075e+07
1.006697353679734230e+09
9.943191140282391371e-01
1.957693700116556190e+00
5.649578661171164917e+00
2.102691952235274542e+01
9.427840307595259617e+01
4.889662215355982653e+02
2.852448641299669816e+03
1.829418601483546445e+04
1.263901342538759636e+05
9.238972779408202041e+05
7.040426961597257294e+06
5.529084158003790677e+07
1.004249744075719653e+00
2.034051119353765813e+00
6.304657822489023289e+00
2.642918398626746779e+01
1.371591553227391387e+02
8.220424105918980331e+02
5.415143975421716277e+03
3.797523755711966805e+04
2.779828641501989332e+05
2.098559947419116274e+06
1.621533254015293159e+07
1.276125117620996237e+08
9.849996555969682266e-01
1.943639126145708440e+00
5.874021944451675026e+00
2.403416471751504346e+01
1.220806315134180409e+02
7.210483373583765569e+02
4.723659594982544149e+03
3.322916028929090680e+04
2.456409408937511616e+05
1.881072651529921684e+06
1.478028838140314631e+07
1.183899285910826176e+08
9.895995358569390499e-01
1.952072603803620687e+00
5.795726048351758308e+00
2.279937742098972109e+01
1.096563052460586363e+02
6.088764968518514706e+02
3.741457039795802302e+03
2.467999549126786587e+04
1.711073909812853672e+05
1.229135550781882601e+06
9.060583138845523819e+06
6.809227369017063081e+07
9.847067004354314035e-01
1.956993359192062298e+00
5.896169308267531939e+00
2.393568043042186844e+01
1.207384068802688404e+02
7.095255599506381259e+02
4.631794362434403411e+03
3.251685106889303279e+04
2.402907008403610962e+05
1.842635496963985497e+06
1.452110407338894717e+07
1.168093721990331560e+08
1.007882469878633280e+00
2.052440697671892522e+00
6.404972094631822266e+00
2.752025995017240945e+01
1.520615144001621388e+02
1.014865930531042522e+03
7.731123109531162299e+03
6.433464642267285672e+04
5.674261003547292203e+05
5.202229573485951871e+06
4.897207124895610660e+07
4.696688137520366311e+08
9.956915034531845787e-01
1.973740251629236608e+00
5.869913426511057963e+00
2.300844350863498278e+01
1.094363252254652963e+02
5.964624126741967984e+02
3.581756567035368334e+03
2.307510735133297567e+04
1.566207126433585654e+05
1.105973740506127244e+06
8.052821185500093736e+06
6.006751439564938843e+07
9.945097167142660233e-01
1.992935713298827016e+00
6.043320217000718308e+00
2.503256449717320820e+01
1.336720336071423958e+02
8.682903363834004722e+02
6.464472976312400533e+03
5.255729150644176843e+04
4.516427415380883613e+05
4.021209392978557386e+06
3.665851705774274468e+07
3.397462770836271644e+08
1.013509125719375570e+00
2.015458450956930214e+00
5.945204754672947622e+00
2.320824021348187571e+01
1.123068354058945175e+02
6.418250873709309872e+02
4.158858406176804237e+03
2.952681939914551549e+04
2.235819096061160380e+05
1.770269148755364120e+06
1.445583644661596045e+07
1.206193756566998959e+08
9.970078445940623313e-01
1.980701607489064209e+00
6.029098028992967429e+00
2.542208504970374250e+01
1.400792131599162076e+02
9.583203149221608328e+02
7.732134225278580743e+03
7.019604581560197403e+04
6.905034495055278530e+05
7.161437295689847320e+06
7.687272908848051727e+07
8.437514267036699057e+08
9.979899366135408512e-01
1.959849285443253208e+00
5.669645716304954064e+00
2.135449961972291533e+01
9.724321092323684468e+01
5.088372550151813130e+02
2.949093270719202337e+03
1.842661173517670250e+04
1.216736900437612785e+05
8.367623174664510880e+05
5.929910057969930582e+06
4.297275720009694248e+07
1.008697051049586513e+00
2.030820386681481349e+00
6.108108533902676385e+00
2.414902089840563804e+01
1.156543303081205636e+02
6.327050695580567208e+02
3.791050190632837257e+03
2.416934517276499537e+04
1.608311966566611663e+05
1.103173973052529618e+06
7.736834324069596827e+06
5.518500114601325989e+07
1.012097233227334359e+00
2.088567160265581979e+00
6.501240441225888844e+00
2.683297930790748609e+01
1.355959656439824244e+02
7.932374610271526763e+02
5.161391525373021977e+03
3.630230240144467098e+04
2.703833869373081252e+05
2.101008087801250629e+06
1.684850286577365920e+07
1.383398764686427414e+08
9.924579069466011871e-01
1.996827419121087521e+00
6.000489997222145711e+00
2.340071227566689060e+01
1.088418511863937539e+02
5.722166341168691588e+02
3.286230636533468896e+03
2.017218817631668571e+04
1.304677073641375318e+05
8.802601954062231816e+05
6.149571735604054295e+06
4.422370502253051847e+07
1.001844990692059678e+00
1.974272414091946315e+00
5.690140158103786483e+00
2.140951386772017884e+01
9.961410074402822090e+01
5.541566873210355197e+02
3.574523343899784322e+03
2.588832095148003282e+04
2.041824673689406191e+05
1.710158090983494418e+06
1.493093773846987262e+07
1.341456755123309791e+08
1.013278707676948054e+00
2.032534020620579085e+00
6.081796683433308814e+00
2.400825668294973170e+01
1.155096166626042162e+02
6.384137802681685798e+02
3.881836700424716582e+03
2.520763678820158384e+04
1.714240582315767242e+05
1.205235138239875669e+06
8.685921900550737977e+06
6.379220561252484471e+07
9.899624284594557011e-01
1.976234905864101776e+00
6.045369669023396675e+00
2.514004176260785073e+01
1.302613212669593850e+02
7.841274761404953324e+02
5.209225975154130538e+03
3.690382290049023868e+04
2.727955238275904558e+05
2.075773179067934863e+06
1.612106251912837848e+07
1.270856766716304272e+08
9.875343804790297497e-01
1.920718260654696863e+00
5.471818327177039976e+00
2.002465875615592950e+01
8.716515393098403308e+01
4.292075110298702043e+02
2.310094370525113845e+03
1.326810449702518235e+04
7.995504094833039562e+04
4.994716338600195013e+05
3.206729274383530486e+06
2.102811454129388928e+07
1.004672167069602606e+00
2.096588164048954983e+00
7.779218319712179586e+00
5.826843797857511476e+01
8.009126272692839166e+02
1.456253148114671785e+04
2.907087314738278510e+05
5.988501014562920667e+06
1.248370349442177564e+08
2.615546164091058254e+09
5.492790520986305237e+10
1.154824975264618164e+12
9.943906139676943479e-01
1.987784671837749650e+00
5.952640334515295173e+00
2.375444523224118853e+01
1.185542740331764122e+02
7.048048668194740003e+02
4.773181191044460320e+03
3.543288105601607094e+04
2.799827960532333236e+05
2.307832679588035680e+06
1.958422970083447173e+07
1.696634490177891254e+08
1.015720528428146530e+00
2.054880977623738225e+00
6.173198379698355609e+00
2.406582323988375194e+01
1.126246361410577634e+02
6.019181094477673923e+02
3.549472761923770577e+03
2.253004777609030498e+04
1.511784869896080345e+05
1.058312781483831583e+06
7.654846177491492592e+06
5.680258752199608088e+07
9.929489150409589460e-01
1.992663650620092097e+00
5.932880532589400069e+00
2.303628148804758169e+01
1.085017092009701116e+02
5.910600582078509433e+02
3.602890241400060404e+03
2.400257100021413862e+04
1.716907536147700157e+05
1.300032962969891494e+06
1.029819726901710965e+07
8.450777049005214870e+07
1.009156196364479063e+00
2.055116499362903415e+00
6.326294548644569637e+00
2.562750014129474962e+01
1.252459865090634707e+02
6.957379579272343335e+02
4.216960403359000338e+03
2.713548263834323370e+04
1.820661186269201280e+05
1.258710634101529373e+06
8.896284202679783106e+06
6.393889375061355531e+07
1.004591491397690772e+00
1.988990497785007250e+00
5.831683388032224080e+00
2.230254406374366738e+01
1.028399490025894920e+02
5.417063066944424463e+02
3.139070236555091924e+03
1.949494762662879293e+04
1.274371317279557115e+05
8.659971030588219874e+05
6.064774853283255361e+06
4.350248652100435644e+07
9.961786719312829552e-01
1.991698582026788955e+00
6.168959805308295685e+00
2.672775187421348875e+01
1.502812107768094734e+02
1.020149207134824906e+03
7.864383443159751550e+03
6.592751161747121660e+04
5.845774740477075102e+05
5.389636320282684639e+06
5.111669500347588956e+07
4.952471647960978746e+08
1.014681044481784200e+00
2.051662357294474770e+00
6.233555408464815706e+00
2.540244065707864607e+01
1.308481612605519047e+02
8.147925067991264996e+02
5.873340843619948828e+03
4.704380982516803488e+04
4.048329702993265819e+05
3.652374119192769285e+06
3.398310140415616333e+07
3.226524582083603740e+08
1.015525985410889565e+00
2.071691844954541395e+00
6.262463681645521696e+00
2.465174348592165998e+01
1.178108577982175404e+02
6.556405907499220120e+02
4.133841871188826190e+03
2.889852006488990446e+04
2.196485624622563191e+05
1.782387123549203854e+06
1.519576470925778709e+07
1.343288428864718676e+08
1.004352872733861091e+00
2.018503107190737555e+00
5.958564234639814217e+00
2.261736644779292504e+01
1.025254009599978104e+02
5.293462672109537834e+02
3.014047406930955731e+03
1.850388196398895525e+04
1.205212236731985904e+05
8.229542529162494466e+05
5.837830247630454600e+06
4.271612507885965705e+07
9.990367308835998994e-01
1.980902015565438878e+00
5.952221099382169811e+00
2.436552904778344342e+01
1.269352767844953007e+02
7.984282840747512182e+02
5.814363144976843614e+03
4.736272786878002080e+04
4.193064025204653735e+05
3.940556823861503508e+06
3.860120555608919263e+07
3.889440790745840669e+08
1.007490618944194338e+00
2.070431928220122231e+00
6.605528074692026408e+00
2.926493642341900525e+01
1.670272140302232629e+02
1.153062520969014258e+03
9.145491253112635604e+03
8.013297551734416629e+04
7.536456283718458144e+05
7.452197577460609376e+06
7.634523151144506037e+07
8.020079743967328072e+08
9.945719388244580461e-01
1.949898890765566328e+00
5.666271261357462841e+00
2.194766004549487803e+01
1.072496479830775371e+02
6.361407302355843285e+02
4.421317163123660066e+03
3.475948843013537407e+04
2.990489729979360709e+05
2.738839380020689685e+06
2.615506521007360891e+07
2.567197499896253347e+08
1.015879270238815968e+00
2.064045562659639010e+00
6.241187701830209100e+00
2.467816889564372573e+01
1.180606798430529665e+02
6.478797596984439906e+02
3.925558714668036828e+03
2.555304933225726927e+04
1.752708609293124464e+05
1.249736017803083640e+06
9.176164695635756478e+06
6.892090170714385808e+07
9.739141752184390377e-01
1.903629692151111552e+00
5.632959152654366974e+00
2.267636807590637815e+01
1.179403529107715656e+02
7.621222416602372505e+02
5.842158044135282580e+03
5.050650372158625396e+04
4.716268518831663532e+05
4.615116146836064756e+06
4.644162848608102649e+07
4.752806152011764050e+08
1.012581593591257212e+00
2.093020126698308392e+00
6.598956583697474620e+00
2.804077620204273558e+01
1.493155234490018017e+02
9.475495629415672738e+02
6.898583314198838707e+03
5.585971661856344872e+04
4.901114799209748162e+05
4.561092249279864132e+06
4.427744778454130143e+07
4.428464500251752734e+08
9.837507016003157467e-01
1.959842190098502357e+00
6.202178430409444942e+00
3.026332224888939848e+01
2.288048463339338241e+02
2.433922936959452272e+03
3.131484585203219831e+04
4.395325994309363887e+05
6.408499635594077408e+06
9.505553925811821222e+07
1.421505829810135841e+09
2.134520261986046219e+10
1.016778818026119691e+00
2.038623033513439875e+00
6.062286587810759464e+00
2.359033396969553564e+01
1.116692375817680727e+02
6.122445705519515968e+02
3.749489095141520920e+03
2.494071106440819494e+04
1.763363826733333990e+05
1.303801140789609635e+06
9.962488837150946259e+06
7.800741903989201784e+07
1.013224295075848103e+00
2.062020805025601256e+00
6.275767891651081065e+00
2.535209936344861958e+01
1.280163994878078881e+02
7.741187274291551148e+02
5.380580399555010445e+03
4.136471871177902358e+04
3.408791108816423221e+05
2.943772462811340112e+06
2.623725670612195879e+07
2.389508203732040524e+08
9.852944353788340992e-01
1.943119286560468062e+00
5.768100745562941611e+00
2.282104304774407666e+01
1.118834676480223322e+02
6.462089523372491158e+02
4.235156960636592885e+03
3.057581811998107878e+04
2.373286640107118583e+05
1.942046640708249528e+06
1.650056816281643696e+07
1.439377335695315599e+08
1.016534729004026083e+00
2.049983995771376133e+00
6.073174079921584756e+00
2.329096787742340169e+01
1.073102396358474664e+02
5.642258094812723357e+02
3.264153319251130142e+03
2.025823096907782747e+04
1.325825512472530245e+05
9.043874623302813852e+05
6.377787399272587150e+06
4.622355239317397028e+07
1.005317845005746502e+00
2.044093232555116213e+00
6.314663455591429830e+00
2.606786448122462829e+01
1.324912136628704786e+02
7.825366832423814003e+02
5.152195686761446268e+03
3.670177240815080586e+04
2.769451557393059484e+05
2.180987959391848650e+06
1.773932016648688167e+07
1.479266863186080456e+08
1.015468067375127292e+00
2.055308464040658922e+00
6.178556424901127997e+00
2.442409638139645267e+01
1.185568034009303489e+02
6.730732974047010657e+02
4.301292258760575351e+03
3.002153202800167855e+04
2.236108784578072082e+05
1.746749952654374065e+06
1.412866704553817958e+07
1.172436829138946980e+08
9.999728561090345247e-01
1.968472378199095596e+00
5.806532778671464001e+00
2.294331538411679716e+01
1.131266097366652730e+02
6.595715232422772942e+02
4.356553249131046869e+03
3.151866118957987783e+04
2.434450903998626163e+05
1.970060644981276710e+06
1.648099104971134849e+07
1.411975644249153137e+08
9.997120903145776394e-01
1.986962981779294202e+00
5.955377931405222647e+00
2.402735164586741945e+01
1.205288463038881872e+02
7.049077945006811206e+02
4.579855412025763144e+03
3.197785229910331327e+04
2.348078985642018961e+05
1.787951184065532405e+06
1.398889501519346982e+07
1.117621663517012447e+08
1.003446118072347737e+00
2.027167726500617384e+00
6.357497181765170424e+00
2.815250342464443989e+01
1.643832070973619466e+02
1.178790231272793335e+03
9.720391101739895021e+03
8.770810195623429900e+04
8.381704418207595591e+05
8.313949374922020361e+06
8.455043774011497200e+07
8.748548035445615053e+08
1.006395723025073297e+00
1.989992761677228605e+00
5.773890607828336741e+00
2.181365117185613300e+01
1.003701285200468050e+02
5.373989897367424646e+02
3.233341201921115953e+03
2.126228481813203325e+04
1.495118405916617194e+05
1.105516635548813501e+06
8.488352587069585919e+06
6.705383356919258833e+07
9.903990749924916903e-01
1.959929520530052205e+00
5.818943090880360103e+00
2.303427213039682186e+01
1.132844912291769930e+02
6.577621197261854604e+02
4.332483976613422783e+03
3.135559828498879142e+04
2.431250945681324229e+05
1.980822257237902377e+06
1.671484500649815798e+07
1.445754991612528265e+08
1.001397214764169208e+00
2.010570271542565735e+00
6.145773839322462351e+00
2.580441533283778455e+01
1.408876487521509091e+02
9.555220713764313132e+02
7.665641811157432130e+03
6.934121624543107464e+04
6.798722353898326401e+05
7.023318861240066588e+06
7.502282135905654728e+07
8.188437225782806873e+08
9.925953202976680601e-01
1.953777756294114321e+00
5.605787976549155616e+00
2.042051912011886472e+01
8.765991596292762722e+01
4.244012321678379749e+02
2.253059021102234510e+03
1.286180831206784205e+04
7.781883764813878224e+04
4.934677934242043993e+05
3.250495363096813206e+06
2.208102962573111057e+07
9.918181652766283607e-01
1.970668436455219164e+00
5.783382649726249269e+00
2.200117270219346821e+01
1.003608543715823629e+02
5.209456970444717854e+02
2.968119294698571139e+03
1.810614449438084193e+04
1.162280142561083776e+05
7.755907558906661579e+05
5.333025999210420065e+06
3.754248008025360852e+07
9.970966946385441121e-01
2.010307871958612047e+00
6.211512132690325316e+00
2.661043460229424440e+01
1.507754280331052144e+02
1.083655129895324308e+03
9.355005889726935493e+03
9.154366675173190015e+04
9.690960640453194501e+05
1.075708788483229280e+07
1.228475700099222660e+08
1.427380557975180149e+09
9.989573653121563979e-01
2.016097193258860720e+00
6.083605145005264170e+00
2.413584720603531864e+01
1.166214849620921683e+02
6.511343697412594338e+02
4.045625563830209558e+03
2.722978265413298868e+04
1.947789285627443169e+05
1.460552616556299850e+06
1.136562544689386711e+07
9.109032018980504572e+07
9.944939999844002454e-01
1.950024560822268604e+00
5.632935710828778753e+00
2.137009276303092875e+01
1.001592990822547193e+02
5.568098850445186372e+02
3.555477597339978274e+03
2.535810531988340517e+04
1.970300833401636628e+05
1.632262961101652123e+06
1.416641333427883312e+07
1.270784373850051761e+08
1.018833904724910422e+00
2.088994554087141520e+00
6.517818759388084082e+00
2.732121881321500823e+01
1.417285738722320332e+02
8.547279296664421508e+02
5.720524473145543197e+03
4.114596890017085389e+04
3.113990122847051825e+05
2.445824218931866344e+06
1.975495570535800979e+07
1.630509932759878635e+08
1.003594114802235371e+00
1.987131433875169551e+00
5.868022897520909886e+00
2.267368378509145543e+01
1.053884282099815550e+02
5.558785132420096033e+02
3.198312050556755821e+03
1.956165683149520919e+04
1.250924342122332309e+05
8.274282471251343377e+05
5.620762110069541261e+06
3.901841038362336904e+07
1.005548903351570988e+00
2.006784423902145065e+00
5.964869127075882460e+00
2.315472179910557315e+01
1.082774143472723836e+02
5.776576289420294188e+02
3.387694691812760539e+03
2.128696127444961894e+04
1.407617111184958776e+05
9.670040462491101352e+05
6.837492021512868814e+06
4.942344938170664757e+07
9.945072748254831785e-01
1.980939987449754858e+00
6.020458948134736588e+00
2.535524946616870778e+01
1.396268760325913263e+02
9.512102656588531318e+02
7.580468626519831560e+03
6.733041368765645893e+04
6.429666270766644739e+05
6.442096262480609119e+06
6.665392043435372412e+07
7.048906869833250046e+08
9.883056871245717856e-01
1.921185991288386852e+00
5.495271341922490116e+00
2.055222734849179744e+01
9.426100215160099083e+01
5.073452386295342080e+02
3.096150795164482588e+03
2.083228054991736644e+04
1.510818155651646375e+05
1.159908364625667455e+06
9.295510954859172925e+06
7.693048862782609463e+07
9.963630072779861013e-01
1.989376009837477532e+00
5.935968641195967344e+00
2.314301345513273134e+01
1.086237670570593679e+02
5.806895311638469366e+02
3.404086579291139515e+03
2.132752051479545480e+04
1.403514719190899050e+05
9.586106203018677188e+05
6.738338533541807905e+06
4.844915449489659816e+07
9.939383691393046671e-01
1.943533008530916817e+00
5.692568819606361075e+00
2.235326252292439264e+01
1.102308051579859836e+02
6.489419850826955098e+02
4.364180232064833035e+03
3.230826515297658989e+04
2.558843423102725064e+05
2.124177601628951263e+06
1.822273900938375667e+07
1.600061303018862605e+08
9.865989481362312796e-01
1.954651538360499208e+00
5.919623176572920364e+00
2.523996554261904990e+01
1.475939470367709134e+02
1.130512149072011198e+03
1.045453315524335085e+04
1.079345469819393620e+05
1.182086786757091992e+06
1.336000687924118526e+07
1.536751005017518401e+08
1.786489675740446091e+09
9.864978925132733556e-01
1.984126892102512585e+00
6.198484555554726327e+00
2.701500572767201191e+01
1.523809496373829404e+02
1.036642972925319100e+03
7.992935264752977673e+03
6.669130476735046250e+04
5.842418747205259278e+05
5.275718111092470586e+06
4.857130493064904958e+07
4.529441599894246459e+08
9.892397868851705578e-01
1.955957583163121294e+00
5.725123063448322114e+00
2.202260515655527229e+01
1.050307792791982848e+02
5.980311842215127172e+02
3.926985158409481755e+03
2.873511999151560667e+04
2.272587392744284298e+05
1.896785367849600036e+06
1.642617687617826462e+07
1.459182490842349231e+08
1.026678742524975263e+00
2.120397451046973636e+00
6.511853013088678033e+00
2.600990105548203957e+01
1.252611855536942898e+02
6.928805309496630116e+02
4.254296613767280178e+03
2.826682700918336195e+04
1.993552241808984836e+05
1.470787953488281230e+06
1.122827650754987635e+07
8.798529284157033265e+07
1.008565070880821146e+00
2.029739707125040482e+00
6.177368758191042808e+00
2.541649261010627825e+01
1.318921721957111686e+02
8.163260134755938680e+02
5.750883500388763423e+03
4.444455854511053622e+04
3.666889885126444278e+05
3.168251658454475924e+06
2.828798284720664471e+07
2.586198367516277432e+08
1.002370110671961800e+00
1.974666387468057005e+00
5.759698169047552163e+00
2.198541270587953278e+01
1.020683008184686145e+02
5.486647429965637457e+02
3.293602467049087409e+03
2.146718804340095085e+04
1.486310386944093625e+05
1.075169805544260424e+06
8.028088825322822668e+06
6.134224537274625152e+07
9.861347254101119342e-01
1.925974711560634711e+00
5.475221700189945473e+00
1.995221573072009846e+01
8.718362392079927758e+01
4.385326865432948011e+02
2.464801779549916773e+03
1.510398304722913235e+04
9.882412699335721845e+04
6.787468774799122475e+05
4.829876897978473455e+06
3.526699778413456678e+07
9.952105124073071796e-01
1.982523386460723458e+00
5.957913881105164400e+00
2.448192879594751048e+01
1.300502278883936924e+02
8.434154882927782637e+02
6.293404566122198958e+03
5.145200891512411908e+04
4.456941718990540830e+05
4.006436508110427298e+06
3.690951630199434608e+07
3.458472257246370316e+08
1.009908471293366139e+00
2.033229090516174065e+00
6.081723638829191536e+00
2.360269191164632829e+01
1.098689793914865902e+02
5.847333736295074686e+02
3.451792752534205647e+03
2.213662176953670132e+04
1.517911116715232783e+05
1.098206627761576092e+06
8.288507813904536888e+06
6.463111403314656764e+07
1.004871391899112343e+00
2.061198230699521794e+00
6.548893788924032400e+00
2.975501798779429308e+01
1.834310007710879233e+02
1.425134264793391594e+03
1.289322232046941099e+04
1.279090577167537849e+05
1.340607757243671222e+06
1.453223835820762999e+07
1.609804382897864282e+08
1.809610196485298157e+09
1.007977682120748231e+00
2.006836840597019833e+00
6.093084179593841299e+00
2.604463742272374560e+01
1.478156522155238406e+02
1.033239067268393228e+03
8.266511178193261003e+03
7.182032317616300134e+04
6.563933291117771296e+05
6.197061224312603474e+06
5.980802176997953653e+07
5.863253124824138880e+08
9.885260307742261832e-01
1.963227608891942699e+00
5.908143710211197330e+00
2.371944077485571256e+01
1.176268023474478355e+02
6.857420998526597486e+02
4.545022015420399839e+03
3.338932682212675718e+04
2.660760358576202998e+05
2.256893843193563167e+06
2.005277211155720800e+07
1.842693076362388730e+08
1.005834570770314906e+00
2.013905239539177661e+00
6.088742777659008176e+00
2.509471256764109981e+01
1.326633844919747389e+02
8.511679240958075070e+02
6.280444733503183670e+03
5.092333104011706018e+04
4.389944333646066952e+05
3.937534910829713568e+06
3.625458417416241020e+07
3.398431607753018141e+08
1.010260726151531285e+00
2.043625755083562812e+00
6.239007779293385347e+00
2.585937246602583883e+01
1.390354194153027265e+02
9.413839654326200161e+02
7.700752793815017867e+03
7.214748365447191463e+04
7.371173709007117432e+05
7.930725711829328910e+06
8.794230574229364097e+07
9.926200493160464764e+08
