# number_particles=1
# length=8
# keep in mind that the imaginary part is discarded.
2.000000000000000000e+00
4.000000000000000000e+00
8.000000000000000000e+00
1.600000000000000000e+01
3.200000000000000000e+01
6.400000000000000000e+01
1.280000000000000000e+02
2.560000000000000000e+02
9.025001525878906250e-01
8.145065307617187500e-01
6.634200215339660645e-01
4.401262700557708740e-01
1.937116384506225586e-01
3.752414137125015259e-02
1.408060663379728794e-03
1.982638877962017432e-06
