# number_particles=1
# length=8
# keep in mind that the imaginary part is discarded.
2.000000000000000000e+00
4.000000000000000000e+00
8.000000000000000000e+00
1.600000000000000000e+01
3.200000000000000000e+01
6.400000000000000000e+01
1.280000000000000000e+02
2.560000000000000000e+02
9.024999141693115234e-01
8.145065307617187500e-01
6.634205579757690430e-01
4.401265680789947510e-01
1.937115788459777832e-01
3.752411529421806335e-02
1.408061012625694275e-03
1.982634103114833124e-06
