# Order: depth_list, dim_list, N_list, design_list 
# depthlen : 15
# dimlen : 1
# Nlen : 1
# designlen : 6
2.000000000000000000e+00
4.000000000000000000e+00
6.000000000000000000e+00
8.000000000000000000e+00
1.000000000000000000e+01
1.200000000000000000e+01
1.400000000000000000e+01
1.600000000000000000e+01
1.800000000000000000e+01
2.000000000000000000e+01
3.000000000000000000e+01
4.000000000000000000e+01
5.000000000000000000e+01
1.000000000000000000e+02
1.500000000000000000e+02
9.000000000000000000e+00
1.312200000000000000e+04
1.000000000000000000e+00
2.000000000000000000e+00
3.000000000000000000e+00
4.000000000000000000e+00
5.000000000000000000e+00
6.000000000000000000e+00
1.120436050527083838e+00
2.653125309556517930e+00
1.026274258014067264e+01
5.923049039808930161e+01
4.690901369530059810e+02
4.619156603800103767e+03
1.002380812311425284e+00
2.003042934660390628e+00
6.069062810574108013e+00
2.610557559427835983e+01
1.588385405904511742e+02
1.316302927318999991e+03
9.867877133989466643e-01
1.957694019248598982e+00
5.759113205686833048e+00
2.177716947092296351e+01
9.733358413788211294e+01
4.888069540999962896e+02
1.009816997761454394e+00
2.047797494804662666e+00
6.224980233447756639e+00
2.493995323311538215e+01
1.219673271294548016e+02
6.922493872664987293e+02
1.007980775431818854e+00
2.052887781211864660e+00
6.330387429107525499e+00
2.630276428445530357e+01
1.377530020883560269e+02
8.675514540353592565e+02
9.790496160549315707e-01
1.979534680023638415e+00
6.222676081611856702e+00
2.667366904869275501e+01
1.438531650636829795e+02
9.274620388556928674e+02
1.036075235680241624e+00
2.128600257602704993e+00
6.640965905584434559e+00
2.801472486046122512e+01
1.479874243377521168e+02
9.252454357966627185e+02
1.008286711806691605e+00
2.010531317300114029e+00
5.953551826553668214e+00
2.317765206683429824e+01
1.101700638303074129e+02
6.083745236100402280e+02
9.952816237563300028e-01
1.977277756583268209e+00
5.928609016190139691e+00
2.396386625394989878e+01
1.227925025441595750e+02
7.629521995906271741e+02
1.014009170903304113e+00
2.090131413555958773e+00
6.513085404228891484e+00
2.724564926282084443e+01
1.431785834896161305e+02
8.988046801490304460e+02
1.008310032238853182e+00
2.086530251350568133e+00
6.603388330753896973e+00
2.836321330026714449e+01
1.533580318103880984e+02
9.821768438583633269e+02
1.000692041975233204e+00
2.000949541850855162e+00
6.017968712158213052e+00
2.426285547073898385e+01
1.224538098155890111e+02
7.345724908136207887e+02
9.985664548305082100e-01
1.996998370204258633e+00
6.086656334069399321e+00
2.594704954518766016e+01
1.492985795964745535e+02
1.105199062990928724e+03
1.006313887272406893e+00
2.075474205495820179e+00
6.483491122453723499e+00
2.701059521025299759e+01
1.395846237670809842e+02
8.495774774456274372e+02
9.967752851905107292e-01
2.004093874529078168e+00
6.189253128436893903e+00
2.660188476675007507e+01
1.498015037708864270e+02
1.039132458702112217e+03
