# Order: depth_list, dim_list, N_list, design_list 
# depthlen : 1
# dimlen : 1
# Nlen : 6
# designlen : 7
8.000000000000000000e+01
9.000000000000000000e+00
1.000000000000000000e+00
1.000000000000000000e+01
9.600000000000000000e+01
9.160000000000000000e+02
8.730000000000000000e+03
8.319000000000000000e+04
1.000000000000000000e+00
2.000000000000000000e+00
3.000000000000000000e+00
4.000000000000000000e+00
5.000000000000000000e+00
6.000000000000000000e+00
7.000000000000000000e+00
1.962168723792182767e+00
1.925053050314121661e+00
1.888639443483554281e+00
1.852914623261852078e+00
1.817865560810790759e+00
1.783479473740934962e+00
1.749743821449902148e+00
1.149340402104262582e+00
1.887384046943558547e+00
3.462875159667746949e+00
6.837374116011491587e+00
1.416293901213546746e+01
3.025645230856537182e+01
6.593582103793197291e+01
1.005609702299781638e+00
2.353970940237502862e+00
7.341885189584246518e+00
2.676658096999067027e+01
1.085292744483305114e+02
4.741702288946814292e+02
2.181081579649963260e+03
9.171848969250502304e-01
1.616497167116927036e+00
4.064116524645124073e+00
1.298669458471510829e+01
4.921249981733433998e+01
2.106623352545479406e+02
9.834936387172211880e+02
9.907764884879879386e-01
1.964029168138007320e+00
5.727313284943575944e+00
2.150830355087544987e+01
9.659537875133429452e+01
4.947530075801295197e+02
2.793507303004413188e+03
9.916466292763251866e-01
1.973065133958634254e+00
5.899720837649615746e+00
2.356463658655905746e+01
1.176732677172061869e+02
7.023182886977002681e+02
4.842221708314771604e+03
