# number_particles=1
# length=6
# keep in mind that the imaginary part is discarded.
2.000000000000000000e+00
4.000000000000000000e+00
8.000000000000000000e+00
1.600000000000000000e+01
3.200000000000000000e+01
6.400000000000000000e+01
9.024984836578369141e-01
8.145042657852172852e-01
6.634191274642944336e-01
4.401260018348693848e-01
1.937113255262374878e-01
3.752419352531433105e-02
