# number_particles=1
# length=6
# keep in mind that the imaginary part is discarded.
2.000000000000000000e+00
4.000000000000000000e+00
8.000000000000000000e+00
1.600000000000000000e+01
3.200000000000000000e+01
6.400000000000000000e+01
9.024997353553771973e-01
8.145058751106262207e-01
6.634199619293212891e-01
4.401265084743499756e-01
1.937113106250762939e-01
3.752417117357254028e-02
