# number_particles=1
# length=6
# keep in mind that the imaginary part is discarded.
2.000000000000000000e+00
4.000000000000000000e+00
8.000000000000000000e+00
1.600000000000000000e+01
3.200000000000000000e+01
6.400000000000000000e+01
9.025006294250488281e-01
8.145071268081665039e-01
6.634209156036376953e-01
4.401267170906066895e-01
1.937115192413330078e-01
3.752415627241134644e-02
