# number_particles=1
# length=8
# keep in mind that the imaginary part is discarded.
2.000000000000000000e+00
4.000000000000000000e+00
8.000000000000000000e+00
1.600000000000000000e+01
3.200000000000000000e+01
6.400000000000000000e+01
1.280000000000000000e+02
2.560000000000000000e+02
9.800996780395507812e-01
9.605960249900817871e-01
9.227446913719177246e-01
8.514574170112609863e-01
7.249799966812133789e-01
5.255964398384094238e-01
2.762516438961029053e-01
7.631503045558929443e-02
