# number_particles=1
# length=8
# keep in mind that the imaginary part is discarded.
2.000000000000000000e+00
4.000000000000000000e+00
8.000000000000000000e+00
1.600000000000000000e+01
3.200000000000000000e+01
6.400000000000000000e+01
1.280000000000000000e+02
2.560000000000000000e+02
9.800998568534851074e-01
9.605957865715026855e-01
9.227446317672729492e-01
8.514574170112609863e-01
7.249804735183715820e-01
5.255960226058959961e-01
2.762514650821685791e-01
7.631504535675048828e-02
