# number_particles=1
# length=8
# keep in mind that the imaginary part is discarded.
2.000000000000000000e+00
4.000000000000000000e+00
8.000000000000000000e+00
1.600000000000000000e+01
3.200000000000000000e+01
6.400000000000000000e+01
1.280000000000000000e+02
2.560000000000000000e+02
9.800993800163269043e-01
9.605962634086608887e-01
9.227437376976013184e-01
8.514579534530639648e-01
7.249805927276611328e-01
5.255969762802124023e-01
2.762517035007476807e-01
7.631490379571914673e-02
