# Order: depth_list, dim_list, N_list, design_list 
# depthlen : 14
# dimlen : 1
# Nlen : 1
# designlen : 3
2.000000000000000000e+00
4.000000000000000000e+00
6.000000000000000000e+00
8.000000000000000000e+00
1.000000000000000000e+01
1.200000000000000000e+01
1.400000000000000000e+01
1.600000000000000000e+01
1.800000000000000000e+01
2.000000000000000000e+01
3.000000000000000000e+01
4.000000000000000000e+01
8.000000000000000000e+01
1.000000000000000000e+02
4.000000000000000000e+00
1.312200000000000000e+04
1.000000000000000000e+00
2.000000000000000000e+00
3.000000000000000000e+00
1.155858392383874333e+00
2.724155567955439672e+00
9.933770929504348146e+00
1.003285139449572982e+00
2.035022176288080686e+00
6.306748480076579177e+00
1.007330489205565227e+00
2.017449277324897761e+00
6.070204924302758265e+00
1.003310849180270248e+00
2.031662551016239160e+00
6.207997808622734759e+00
9.840311638733415522e-01
1.917073035348628718e+00
5.584864856192166549e+00
1.013325172270155949e+00
2.057599316465359429e+00
6.304419738898445758e+00
1.013499858950113408e+00
2.038259422067943305e+00
6.196301473856367537e+00
9.908458400545784306e-01
1.947320837837205776e+00
5.614871548730828721e+00
9.862874415365763259e-01
1.957672606235795643e+00
5.908701713997770000e+00
1.000696047259958643e+00
1.972395189602396792e+00
5.615493975997399190e+00
1.006227487609383298e+00
2.007886496414728494e+00
5.903197479383822888e+00
9.919157163989948955e-01
1.943778767380179406e+00
5.648460466710698569e+00
1.020799855948351764e+00
2.080821662537390093e+00
6.328227236237681019e+00
1.011704351625924092e+00
2.001046507247854045e+00
5.833942511992859181e+00
