# Order: depth_list, dim_list, N_list, design_list 
# depthlen : 14
# dimlen : 1
# Nlen : 1
# designlen : 12
2.000000000000000000e+00
4.000000000000000000e+00
6.000000000000000000e+00
8.000000000000000000e+00
1.000000000000000000e+01
1.200000000000000000e+01
1.400000000000000000e+01
1.600000000000000000e+01
1.800000000000000000e+01
2.000000000000000000e+01
3.000000000000000000e+01
4.000000000000000000e+01
8.000000000000000000e+01
1.200000000000000000e+02
9.000000000000000000e+00
1.312200000000000000e+04
1.000000000000000000e+00
2.000000000000000000e+00
3.000000000000000000e+00
4.000000000000000000e+00
5.000000000000000000e+00
6.000000000000000000e+00
7.000000000000000000e+00
8.000000000000000000e+00
9.000000000000000000e+00
1.000000000000000000e+01
1.100000000000000000e+01
1.200000000000000000e+01
1.535336145318309420e+00
4.722208008873352014e+00
2.150359517383873609e+01
1.282509927987807146e+02
9.345559615956544803e+02
7.929656470354088015e+03
7.552653563585504889e+04
7.848689531639824854e+05
8.707312076978579164e+06
1.014432437120603323e+08
1.226020160795563698e+09
1.523273785792979622e+10
1.171745070754000917e+00
2.779248759192789020e+00
1.003813983826553802e+01
4.897355731808444546e+01
3.008150957685928120e+02
2.203413264903012987e+03
1.836073956634489150e+04
1.674090780565655441e+05
1.622204548239505151e+06
1.637268629533560947e+07
1.698431897088040411e+08
1.795352705222559214e+09
1.065474637778883515e+00
2.251671015659816533e+00
7.018898401877269322e+00
2.863515836313876761e+01
1.438367640725520005e+02
8.570266923013257383e+02
5.875586581970481348e+03
4.498981092457782506e+04
3.741164477793700644e+05
3.299974930634354241e+06
3.033137371195861325e+07
2.868691257314497232e+08
1.039388557849874051e+00
2.193857285459116291e+00
6.947355576026278179e+00
2.871144902400879317e+01
1.420847228551250225e+02
7.952850544132966206e+02
4.845474198046055790e+03
3.132027370100903499e+04
2.111258243965306028e+05
1.467316645623227349e+06
1.043428168069788441e+07
7.553201961755624413e+07
1.005020452075722881e+00
2.021998993964875257e+00
6.116938464669390285e+00
2.483644462003435294e+01
1.272382479093961649e+02
7.838169386105660124e+02
5.542819544548519843e+03
4.315749198035881273e+04
3.582495594871265348e+05
3.100884356489867903e+06
2.759012468941765279e+07
2.500916502416991591e+08
1.015439713168002411e+00
2.060391146169341603e+00
6.155734399024619385e+00
2.377568746575611058e+01
1.110734600120399875e+02
6.044471514878334801e+02
3.730601316999461233e+03
2.550129930800295188e+04
1.888236851385152549e+05
1.485163303577554412e+06
1.221366140046672150e+07
1.037667759858290851e+08
1.012637531162696947e+00
2.067836899527417671e+00
6.427882691253918424e+00
2.702665989420249204e+01
1.437264346366565348e+02
9.175287598025976195e+02
6.704291418631845772e+03
5.382046862388095906e+04
4.601282935496172868e+05
4.100431548436095472e+06
3.756073973140395433e+07
3.505349060204136968e+08
9.948259674242145856e-01
2.007372087106408909e+00
6.241441204171724877e+00
2.702463761221534355e+01
1.544695329646311848e+02
1.113949290425344088e+03
9.616221070046334717e+03
9.411097849460910948e+04
9.983185492125874152e+05
1.112601630372300558e+07
1.277401536701734811e+08
1.493158832601980448e+09
9.909896417271050195e-01
1.942809096069014307e+00
5.608818432280799016e+00
2.110265902703874019e+01
9.695848351163110124e+01
5.240320811463595874e+02
3.241114185637385617e+03
2.233161985601856941e+04
1.668667440024141688e+05
1.320547356758858776e+06
1.086701137175212055e+07
9.179771697693081200e+07
1.011906493145554364e+00
2.013791892685214524e+00
5.863363912521278642e+00
2.192540205403840048e+01
9.735336281237641742e+01
4.878792474737855969e+02
2.669508176772546904e+03
1.560338925878469854e+04
9.600408677880250616e+04
6.154613924521113513e+05
4.080657030788833741e+06
2.782501910743699595e+07
9.945097167142660233e-01
1.992935713298827016e+00
6.043320217000718308e+00
2.503256449717320820e+01
1.336720336071423958e+02
8.682903363834004722e+02
6.464472976312400533e+03
5.255729150644176843e+04
4.516427415380883613e+05
4.021209392978557386e+06
3.665851705774274468e+07
3.397462770836271644e+08
1.004352872733861091e+00
2.018503107190737555e+00
5.958564234639814217e+00
2.261736644779292504e+01
1.025254009599978104e+02
5.293462672109537834e+02
3.014047406930955731e+03
1.850388196398895525e+04
1.205212236731985904e+05
8.229542529162494466e+05
5.837830247630454600e+06
4.271612507885965705e+07
9.925953202976680601e-01
1.953777756294114321e+00
5.605787976549155616e+00
2.042051912011886472e+01
8.765991596292762722e+01
4.244012321678379749e+02
2.253059021102234510e+03
1.286180831206784205e+04
7.781883764813878224e+04
4.934677934242043993e+05
3.250495363096813206e+06
2.208102962573111057e+07
1.009908471293366139e+00
2.033229090516174065e+00
6.081723638829191536e+00
2.360269191164632829e+01
1.098689793914865902e+02
5.847333736295074686e+02
3.451792752534205647e+03
2.213662176953670132e+04
1.517911116715232783e+05
1.098206627761576092e+06
8.288507813904536888e+06
6.463111403314656764e+07
