# Order: depth_list, dim_list, N_list, design_list 
# depthlen : 14
# dimlen : 1
# Nlen : 1
# designlen : 3
2.000000000000000000e+00
4.000000000000000000e+00
6.000000000000000000e+00
8.000000000000000000e+00
1.000000000000000000e+01
1.200000000000000000e+01
1.400000000000000000e+01
1.600000000000000000e+01
1.800000000000000000e+01
2.000000000000000000e+01
3.000000000000000000e+01
4.000000000000000000e+01
8.000000000000000000e+01
1.200000000000000000e+02
9.000000000000000000e+00
1.312200000000000000e+04
1.000000000000000000e+00
2.000000000000000000e+00
3.000000000000000000e+00
1.044366588268391682e+00
2.223334974255345653e+00
7.109011703160875051e+00
1.008773746075867894e+00
2.001673447582012599e+00
5.926833977652997021e+00
9.764189992750482716e-01
1.865063915718298437e+00
5.246216558315106582e+00
1.001665182065844872e+00
1.961783501671439334e+00
5.606529532093325052e+00
1.009452465988803782e+00
1.996090376718230974e+00
5.886592384413085632e+00
1.013180730280953012e+00
2.035287317028292353e+00
5.970506625513340104e+00
1.004981182747955115e+00
2.004268328276837430e+00
5.988012390292063891e+00
1.008006315560277200e+00
2.050239765263016878e+00
6.210675590203782015e+00
9.939552025297841986e-01
1.971806741677650354e+00
5.855718268970339757e+00
9.782696266735398938e-01
1.919188805755421834e+00
5.566030348102270153e+00
1.010088406813888895e+00
2.060189939556889449e+00
6.568032945884914930e+00
9.935454197268795973e-01
1.998094966449601051e+00
6.030084178443982701e+00
9.923089222137950749e-01
1.980929022500185654e+00
6.056619014243977084e+00
1.011584208945614849e+00
2.063708463825706385e+00
6.301617126290656401e+00
