# Order: depth_list, dim_list, N_list, design_list 
# depthlen : 1
# dimlen : 1
# Nlen : 6
# designlen : 7
8.000000000000000000e+01
9.000000000000000000e+00
1.000000000000000000e+00
1.000000000000000000e+01
9.600000000000000000e+01
9.160000000000000000e+02
8.730000000000000000e+03
8.319000000000000000e+04
1.000000000000000000e+00
2.000000000000000000e+00
3.000000000000000000e+00
4.000000000000000000e+00
5.000000000000000000e+00
6.000000000000000000e+00
7.000000000000000000e+00
1.871495165213767242e+00
1.751247076709252726e+00
1.638725218578054976e+00
1.533433161841351922e+00
1.434906374282274966e+00
1.342710171001846975e+00
1.256437796656653560e+00
1.059386439021869686e+00
1.245256195705367386e+00
1.579751365969000343e+00
2.117122395008998126e+00
2.953394958403924520e+00
4.245639492235805612e+00
6.244626832288370899e+00
1.212796359097706889e+00
2.389201548096550720e+00
6.481436333311257236e+00
2.172932317502401034e+01
8.396941027388287182e+01
3.560746183846375175e+02
1.600334930721259525e+03
9.565228440097222062e-01
1.846427132318047004e+00
5.679320021229201210e+00
2.536959770759354171e+01
1.472045277878132197e+02
9.938354957892684070e+02
7.267637717775225610e+03
1.000173075438007153e+00
1.980525856324147238e+00
5.784767532012362601e+00
2.214822723181483610e+01
1.049492456860597969e+02
5.949297972309417446e+02
3.919623597976216388e+03
1.001304761948417887e+00
2.011754774697204873e+00
6.068004867811962910e+00
2.427629438387345218e+01
1.198606344047319254e+02
6.953397663198667260e+02
4.571758654060499794e+03
